%YAML 1.1
%TAG !u! tag:unity3d.com,2011:
--- !u!319 &31900000
AvatarMask:
  m_ObjectHideFlags: 0
  m_CorrespondingSourceObject: {fileID: 0}
  m_PrefabInstance: {fileID: 0}
  m_PrefabAsset: {fileID: 0}
  m_Name: Special Tools
  m_Mask: 01000000010000000100000001000000010000000100000001000000010000000100000001000000010000000100000001000000
  m_Elements:
  - m_Path: 
    m_Weight: 1
  - m_Path: Bridge_Pneumatic_To_Hyd_And_Optical
    m_Weight: 0
  - m_Path: Bridge_Pneumatic_To_Hyd_And_Optical/Arm_Pneumatic_Spring_Plenum_Bridge
    m_Weight: 0
  - m_Path: Bridge_Pneumatic_To_Hyd_And_Optical/Arm_Pneumatic_Spring_Plenum_Bridge/Bone.03
    m_Weight: 0
  - m_Path: Bridge_Pneumatic_To_Hyd_And_Optical/Arm_Pneumatic_Spring_Plenum_Bridge/Bone.03/Bone.04
    m_Weight: 0
  - m_Path: Bridge_Pneumatic_To_Hyd_And_Optical/Arm_Pneumatic_Spring_Plenum_Bridge/Bone.03/Bone.04/Bone.00
    m_Weight: 0
  - m_Path: Bridge_Pneumatic_To_Hyd_And_Optical/Arm_Pneumatic_Spring_Plenum_Bridge/Bone.03/Bone.04/Bone.00/Bone.01
    m_Weight: 0
  - m_Path: Bridge_Pneumatic_To_Hyd_And_Optical/Arm_Pneumatic_Spring_Plenum_Bridge/Bone.03/Bone.04/Bone.00/Bone.01/Bone.05
    m_Weight: 0
  - m_Path: Bridge_Pneumatic_To_Hyd_And_Optical/Arm_Pneumatic_Spring_Plenum_Bridge/Bone.03/Bone.04/Bone.00/Bone.01/Bone.05/Bone.06
    m_Weight: 0
  - m_Path: Bridge_Pneumatic_To_Hyd_And_Optical/Arm_Pneumatic_Spring_Plenum_Bridge/Bone.03/Bone.04/Bone.00/Bone.01/Bone.05/Bone.06/Bone.07
    m_Weight: 0
  - m_Path: Bridge_Pneumatic_To_Hyd_And_Optical/Arm_Pneumatic_Spring_Plenum_Bridge/Bone.03/Bone.04/Bone.00/Bone.01/Bone.05/Bone.06/Bone.07/Bone.08
    m_Weight: 0
  - m_Path: Bridge_Pneumatic_To_Hyd_And_Optical/Arm_Pneumatic_Spring_Plenum_Bridge/Bone.03/Bone.04/Bone.00/Bone.01/Bone.05/Bone.06/Bone.07/Bone.08/Bone.09
    m_Weight: 0
  - m_Path: Bridge_Pneumatic_To_Hyd_And_Optical/Arm_Pneumatic_Spring_Plenum_Bridge/Bone.03/Bone.04/Bone.00/Bone.01/Bone.05/Bone.06/Bone.07/Bone.08/Bone.09/Bone.10
    m_Weight: 0
  - m_Path: Bridge_Pneumatic_To_Hyd_And_Optical/Arm_Pneumatic_Spring_Plenum_Bridge/Bone.03/Bone.04/Bone.00/Bone.01/Bone.05/Bone.06/Bone.07/Bone.08/Bone.09/Bone.10/Bone.02
    m_Weight: 0
  - m_Path: Bridge_Pneumatic_To_Hyd_And_Optical/Arm_Pneumatic_Spring_Plenum_Bridge/Bone.03/Bone.04/Bone.00/Bone.01/Bone.05/Bone.06/Bone.07/Bone.08/Bone.09/Bone.10/Bone.02/Bone.11
    m_Weight: 0
  - m_Path: Bridge_Pneumatic_To_Hyd_And_Optical/Arm_Pneumatic_Spring_Plenum_Bridge/Bone.03/Bone.04/Bone.00/Bone.01/Bone.05/Bone.06/Bone.07/Bone.08/Bone.09/Bone.10/Bone.02/Bone.11/Bone.11_end
    m_Weight: 0
  - m_Path: Bridge_Pneumatic_To_Hyd_And_Optical/Cylinder028_001
    m_Weight: 0
  - m_Path: Bridge_Pneumatic_To_Hyd_And_Optical/Spring_Plenum_Pressure_001
    m_Weight: 0
  - m_Path: Bridge_Pneumatic_To_Hyd_And_Optical/Spring_Plenum_Pressure_002
    m_Weight: 0
  - m_Path: Bridge_Pneumatic_To_Hyd_And_Optical/Spring_Plenum_Pressure_002/Spring_Plenum_Pressure_005
    m_Weight: 0
  - m_Path: Bridge_Pneumatic_To_Hyd_And_Optical/Spring_Plenum_Pressure_004
    m_Weight: 0
  - m_Path: Bridge_Pneumatic_To_Hyd_And_Optical/Spring_Plenum_Pressure_007
    m_Weight: 0
  - m_Path: Bridge_Pneumatic_To_Hyd_And_Optical/Spring_Plenum_Pressure_008
    m_Weight: 0
  - m_Path: Bridge_Pneumatic_To_Hyd_And_Optical/Spring_Plenum_Valve
    m_Weight: 0
  - m_Path: Bridge_Pneumatic_To_Hyd_And_Optical/To_Pneumatic_Spring_Plenum
    m_Weight: 0
  - m_Path: Control_Panel
    m_Weight: 0
  - m_Path: Control_Panel/Panel
    m_Weight: 0
  - m_Path: Control_Panel/Panel/Interface_Enclosure
    m_Weight: 0
  - m_Path: Control_Panel/Panel/Interface_Enclosure/Interface_Board_001
    m_Weight: 0
  - m_Path: Control_Panel/Panel/Interface_Enclosure/Interface_Board_001/Interface_Board_002
    m_Weight: 0
  - m_Path: Control_Panel/Panel/Interface_Enclosure/Interface_Board_001/Interface_Board_002/Interface_Board
    m_Weight: 0
  - m_Path: Control_Panel/Panel/Interface_Enclosure/Interface_Board_001/Interface_Board_002/Interface_Board_042
    m_Weight: 0
  - m_Path: Control_Panel/Panel/Interface_Enclosure/Interface_Board_001/Interface_Board_002/Interface_Board_044
    m_Weight: 0
  - m_Path: Control_Panel/Panel/Interface_Enclosure/Interface_Board_001/Interface_Board_002/Interface_Board_045
    m_Weight: 0
  - m_Path: Control_Panel/Panel/Interface_Enclosure/Interface_Board_001/Interface_Board_002/Interface_Board_046
    m_Weight: 0
  - m_Path: Control_Panel/Panel/Interface_Enclosure/Interface_Board_001/Interface_Board_002/Screw_019
    m_Weight: 0
  - m_Path: Control_Panel/Panel/Interface_Enclosure/Interface_Board_001/Interface_Board_005
    m_Weight: 0
  - m_Path: Control_Panel/Panel/Interface_Enclosure/Interface_Board_001/Interface_Board_006
    m_Weight: 0
  - m_Path: Control_Panel/Panel/Interface_Enclosure/Interface_Board_001/Interface_Board_007
    m_Weight: 0
  - m_Path: Control_Panel/Panel/Interface_Enclosure/Interface_Board_001/Interface_Board_008
    m_Weight: 0
  - m_Path: Control_Panel/Panel/Interface_Enclosure/Interface_Board_001/Interface_Board_009
    m_Weight: 0
  - m_Path: Control_Panel/Panel/Interface_Enclosure/Interface_Board_001/Interface_Board_010
    m_Weight: 0
  - m_Path: Control_Panel/Panel/Interface_Enclosure/Interface_Board_001/Interface_Board_011
    m_Weight: 0
  - m_Path: Control_Panel/Panel/Interface_Enclosure/Interface_Board_001/Interface_Board_012
    m_Weight: 0
  - m_Path: Control_Panel/Panel/Interface_Enclosure/Interface_Board_001/Interface_Board_013
    m_Weight: 0
  - m_Path: Control_Panel/Panel/Interface_Enclosure/Interface_Board_001/Interface_Board_014
    m_Weight: 0
  - m_Path: Control_Panel/Panel/Interface_Enclosure/Interface_Board_001/Interface_Board_015
    m_Weight: 0
  - m_Path: Control_Panel/Panel/Interface_Enclosure/Interface_Board_001/Interface_Board_016
    m_Weight: 0
  - m_Path: Control_Panel/Panel/Interface_Enclosure/Interface_Board_001/Interface_Board_017
    m_Weight: 0
  - m_Path: Control_Panel/Panel/Interface_Enclosure/Interface_Board_001/Interface_Board_018
    m_Weight: 0
  - m_Path: Control_Panel/Panel/Interface_Enclosure/Interface_Board_001/Interface_Board_019
    m_Weight: 0
  - m_Path: Control_Panel/Panel/Interface_Enclosure/Interface_Board_001/Interface_Board_020
    m_Weight: 0
  - m_Path: Control_Panel/Panel/Interface_Enclosure/Interface_Board_001/Interface_Board_021
    m_Weight: 0
  - m_Path: Control_Panel/Panel/Interface_Enclosure/Interface_Board_001/Interface_Board_022
    m_Weight: 0
  - m_Path: Control_Panel/Panel/Interface_Enclosure/Interface_Board_001/Interface_Board_023
    m_Weight: 0
  - m_Path: Control_Panel/Panel/Interface_Enclosure/Interface_Board_001/Interface_Board_024
    m_Weight: 0
  - m_Path: Control_Panel/Panel/Interface_Enclosure/Interface_Board_001/Interface_Board_025
    m_Weight: 0
  - m_Path: Control_Panel/Panel/Interface_Enclosure/Interface_Board_001/Interface_Board_026
    m_Weight: 0
  - m_Path: Control_Panel/Panel/Interface_Enclosure/Interface_Board_001/Interface_Board_027
    m_Weight: 0
  - m_Path: Control_Panel/Panel/Interface_Enclosure/Interface_Board_001/Interface_Board_028
    m_Weight: 0
  - m_Path: Control_Panel/Panel/Interface_Enclosure/Interface_Board_001/Interface_Board_029
    m_Weight: 0
  - m_Path: Control_Panel/Panel/Interface_Enclosure/Interface_Board_001/Interface_Board_030
    m_Weight: 0
  - m_Path: Control_Panel/Panel/Interface_Enclosure/Interface_Board_001/Interface_Board_034
    m_Weight: 0
  - m_Path: Control_Panel/Panel/Interface_Enclosure/Interface_Board_001/Interface_Board_035
    m_Weight: 0
  - m_Path: Control_Panel/Panel/Interface_Enclosure/Interface_Board_001/Interface_Board_037
    m_Weight: 0
  - m_Path: Control_Panel/Panel/Interface_Enclosure/Interface_Board_001/Interface_Board_038
    m_Weight: 0
  - m_Path: Control_Panel/Panel/Interface_Enclosure/Interface_Board_001/Interface_Board_040
    m_Weight: 0
  - m_Path: Control_Panel/Panel/Interface_Enclosure/Interface_Board_001/Interface_Board_043
    m_Weight: 0
  - m_Path: Control_Panel/Panel/Interface_Enclosure/Interface_Enclosure_003
    m_Weight: 0
  - m_Path: Control_Panel/Panel/Interface_Enclosure/Optical_Safety_Bariers_001
    m_Weight: 0
  - m_Path: Control_Panel/Panel/Interface_Enclosure/Optical_Safety_Bariers_001/Optical_Safety_Bariers_002
    m_Weight: 0
  - m_Path: Control_Panel/Panel/Interface_Enclosure/Optical_Safety_Bariers_001/Optical_Safety_Bariers_002/Optical_Safety_Bariers_003
    m_Weight: 0
  - m_Path: Control_Panel/Panel/Interface_Enclosure/Optical_Safety_Bariers_001/Optical_Safety_Bariers_002/Optical_Safety_Bariers_006
    m_Weight: 0
  - m_Path: Control_Panel/Panel/Interface_Enclosure/Optical_Safety_Bariers_001/Optical_Safety_Bariers_002/Optical_Safety_Bariers_008
    m_Weight: 0
  - m_Path: Control_Panel/Panel/Interface_Enclosure/Optical_Safety_Bariers_001/Optical_Safety_Bariers_002/Optical_Safety_Bariers_020
    m_Weight: 0
  - m_Path: Control_Panel/Panel/Interface_Enclosure/Optical_Safety_Bariers_001/Optical_Safety_Bariers_002/Screw_008
    m_Weight: 0
  - m_Path: Control_Panel/Panel/Interface_Enclosure/Optical_Safety_Bariers_001/Optical_Safety_Bariers_002/Screw_009
    m_Weight: 0
  - m_Path: Control_Panel/Panel/Interface_Enclosure/Optical_Safety_Bariers_001/Optical_Safety_Bariers_007
    m_Weight: 0
  - m_Path: Control_Panel/Panel/Interface_Enclosure/Optical_Safety_Bariers_001/Optical_Safety_Bariers_007/Optical_Safety_Bariers_009
    m_Weight: 0
  - m_Path: Control_Panel/Panel/Interface_Enclosure/Optical_Safety_Bariers_001/Optical_Safety_Bariers_007/Optical_Safety_Bariers_012
    m_Weight: 0
  - m_Path: Control_Panel/Panel/Interface_Enclosure/Optical_Safety_Bariers_001/Optical_Safety_Bariers_007/Optical_Safety_Bariers_013
    m_Weight: 0
  - m_Path: Control_Panel/Panel/Interface_Enclosure/Optical_Safety_Bariers_001/Optical_Safety_Bariers_007/Optical_Safety_Bariers_049
    m_Weight: 0
  - m_Path: Control_Panel/Panel/Interface_Enclosure/Optical_Safety_Bariers_001/Optical_Safety_Bariers_007/Screw_001
    m_Weight: 0
  - m_Path: Control_Panel/Panel/Interface_Enclosure/Optical_Safety_Bariers_001/Optical_Safety_Bariers_007/Screw_002
    m_Weight: 0
  - m_Path: Control_Panel/Panel/Interface_Enclosure/Optical_Safety_Bariers_001/Optical_Safety_Bariers_010
    m_Weight: 0
  - m_Path: Control_Panel/Panel/Interface_Enclosure/Optical_Safety_Bariers_001/Optical_Safety_Bariers_021
    m_Weight: 0
  - m_Path: Control_Panel/Panel/Interface_Enclosure/Optical_Safety_Bariers_001/Optical_Safety_Bariers_021/Optical_Safety_Bariers_022
    m_Weight: 0
  - m_Path: Control_Panel/Panel/Interface_Enclosure/Optical_Safety_Bariers_001/Optical_Safety_Bariers_021/Optical_Safety_Bariers_026
    m_Weight: 0
  - m_Path: Control_Panel/Panel/Interface_Enclosure/Optical_Safety_Bariers_001/Optical_Safety_Bariers_021/Optical_Safety_Bariers_027
    m_Weight: 0
  - m_Path: Control_Panel/Panel/Interface_Enclosure/Optical_Safety_Bariers_001/Optical_Safety_Bariers_021/Optical_Safety_Bariers_028
    m_Weight: 0
  - m_Path: Control_Panel/Panel/Interface_Enclosure/Optical_Safety_Bariers_001/Optical_Safety_Bariers_021/Screw_010
    m_Weight: 0
  - m_Path: Control_Panel/Panel/Interface_Enclosure/Optical_Safety_Bariers_001/Optical_Safety_Bariers_021/Screw_011
    m_Weight: 0
  - m_Path: Control_Panel/Panel/Interface_Enclosure/Optical_Safety_Bariers_001/Optical_Safety_Bariers_029
    m_Weight: 0
  - m_Path: Control_Panel/Panel/Interface_Enclosure/Optical_Safety_Bariers_001/Optical_Safety_Bariers_029/Optical_Safety_Bariers_030
    m_Weight: 0
  - m_Path: Control_Panel/Panel/Interface_Enclosure/Optical_Safety_Bariers_001/Optical_Safety_Bariers_029/Optical_Safety_Bariers_033
    m_Weight: 0
  - m_Path: Control_Panel/Panel/Interface_Enclosure/Optical_Safety_Bariers_001/Optical_Safety_Bariers_029/Optical_Safety_Bariers_034
    m_Weight: 0
  - m_Path: Control_Panel/Panel/Interface_Enclosure/Optical_Safety_Bariers_001/Optical_Safety_Bariers_029/Optical_Safety_Bariers_035
    m_Weight: 0
  - m_Path: Control_Panel/Panel/Interface_Enclosure/Optical_Safety_Bariers_001/Optical_Safety_Bariers_029/Screw_012
    m_Weight: 0
  - m_Path: Control_Panel/Panel/Interface_Enclosure/Optical_Safety_Bariers_001/Optical_Safety_Bariers_029/Screw_013
    m_Weight: 0
  - m_Path: Control_Panel/Panel/Interface_Enclosure/Optical_Safety_Bariers_001/Optical_Safety_Bariers_036
    m_Weight: 0
  - m_Path: Control_Panel/Panel/Interface_Enclosure/Optical_Safety_Bariers_001/Optical_Safety_Bariers_036/Optical_Safety_Bariers_037
    m_Weight: 0
  - m_Path: Control_Panel/Panel/Interface_Enclosure/Optical_Safety_Bariers_001/Optical_Safety_Bariers_036/Optical_Safety_Bariers_040
    m_Weight: 0
  - m_Path: Control_Panel/Panel/Interface_Enclosure/Optical_Safety_Bariers_001/Optical_Safety_Bariers_036/Optical_Safety_Bariers_041
    m_Weight: 0
  - m_Path: Control_Panel/Panel/Interface_Enclosure/Optical_Safety_Bariers_001/Optical_Safety_Bariers_036/Optical_Safety_Bariers_042
    m_Weight: 0
  - m_Path: Control_Panel/Panel/Interface_Enclosure/Optical_Safety_Bariers_001/Optical_Safety_Bariers_036/Screw
    m_Weight: 0
  - m_Path: Control_Panel/Panel/Interface_Enclosure/Optical_Safety_Bariers_001/Optical_Safety_Bariers_036/Screw_014
    m_Weight: 0
  - m_Path: Control_Panel/Panel/Interface_Enclosure/Optical_Safety_Bariers_001/Optical_Safety_Bariers_044
    m_Weight: 0
  - m_Path: Control_Panel/Panel/Interface_Enclosure/Optical_Safety_Bariers_001/Screw_003
    m_Weight: 0
  - m_Path: Control_Panel/Panel/Interface_Enclosure/Optical_Safety_Bariers_001/Screw_004
    m_Weight: 0
  - m_Path: Control_Panel/Panel/Interface_Enclosure/Optical_Safety_Bariers_001/Screw_005
    m_Weight: 0
  - m_Path: Control_Panel/Panel/Interface_Enclosure/Optical_Safety_Bariers_001/Screw_006
    m_Weight: 0
  - m_Path: Control_Panel/Panel/Interface_Enclosure/Optical_Safety_Bariers_001/Screw_007
    m_Weight: 0
  - m_Path: Control_Panel/Panel/Interface_Enclosure/Optical_Safety_Bariers_001/Screw_015
    m_Weight: 0
  - m_Path: Control_Panel/Panel/Interface_Enclosure/Optical_Safety_Bariers_001/Screw_016
    m_Weight: 0
  - m_Path: Control_Panel/Panel/Interface_Enclosure/Terminal_Strip
    m_Weight: 0
  - m_Path: Control_Panel/Panel/Interface_Enclosure/Terminal_Strip_001
    m_Weight: 0
  - m_Path: Control_Panel/Panel/Interface_Enclosure/Terminal_Strip_002
    m_Weight: 0
  - m_Path: Control_Panel/Panel/Interface_Enclosure/Terminal_Strip_003
    m_Weight: 0
  - m_Path: Control_Panel/Panel/Interface_Enclosure_001
    m_Weight: 0
  - m_Path: Control_Panel/Panel/Interface_Enclosure_001/Interface_Enclosure_002
    m_Weight: 0
  - m_Path: Control_Panel/Panel/Interface_Enclosure_001/Interface_Enclosure_002/Hydraulic_System_Pump_&_Motor_032_001
    m_Weight: 0
  - m_Path: Control_Panel/Panel/Interface_Enclosure_001/Interface_Enclosure_002/Hydraulic_System_Pump_&_Motor_032_002
    m_Weight: 0
  - m_Path: Control_Panel/Panel/Interface_Enclosure_001/Interface_Enclosure_002/Hydraulic_System_Pump_&_Motor_032_003
    m_Weight: 0
  - m_Path: Control_Panel/Panel/Interface_Enclosure_001/Interface_Enclosure_002/Hydraulic_System_Pump_&_Motor_032_004
    m_Weight: 0
  - m_Path: Control_Panel/Panel/Interface_Enclosure_001/Interface_Enclosure_002/Hydraulic_System_Pump_&_Motor_032_005
    m_Weight: 0
  - m_Path: Control_Panel/Panel/Interface_Enclosure_001/Interface_Enclosure_002/Hydraulic_System_Pump_&_Motor_032_006
    m_Weight: 0
  - m_Path: Control_Panel/Panel/Interface_Enclosure_001/Interface_Enclosure_002/Hydraulic_System_Pump_&_Motor_032_007
    m_Weight: 0
  - m_Path: Control_Panel/Panel/Interface_Enclosure_001/Interface_Enclosure_002/Hydraulic_System_Pump_&_Motor_032_008
    m_Weight: 0
  - m_Path: Control_Panel/Panel/Interface_Enclosure_001/Interface_Enclosure_002/Hydraulic_System_Pump_&_Motor_032_009
    m_Weight: 0
  - m_Path: Control_Panel/Panel/Interface_Enclosure_001/Interface_Enclosure_002/Hydraulic_System_Pump_&_Motor_032_010
    m_Weight: 0
  - m_Path: Control_Panel/Panel/Interface_Enclosure_001/Interface_Enclosure_002/Hydraulic_System_Pump_&_Motor_032_011
    m_Weight: 0
  - m_Path: Control_Panel/Panel/Interface_Enclosure_001/Interface_Enclosure_002/Hydraulic_System_Pump_&_Motor_032_012
    m_Weight: 0
  - m_Path: Control_Panel/Panel/Interface_Enclosure_001/Interface_Enclosure_002/Hydraulic_System_Pump_&_Motor_032_013
    m_Weight: 0
  - m_Path: Control_Panel/Panel/Interface_Enclosure_001/Interface_Enclosure_002/Hydraulic_System_Pump_&_Motor_032_014
    m_Weight: 0
  - m_Path: Control_Panel/Panel/Interface_Enclosure_001/Interface_Enclosure_004
    m_Weight: 0
  - m_Path: Control_Panel/Panel/Interface_Enclosure_001/Interface_Enclosure_005
    m_Weight: 0
  - m_Path: Control_Panel/Panel/Interface_Enclosure_001/To_Operating_Computer_001
    m_Weight: 0
  - m_Path: Control_Panel/Panel/Interface_Enclosure_001/To_Optic
    m_Weight: 0
  - m_Path: Control_Panel/Panel/To_Hydraulic_Control_001
    m_Weight: 0
  - m_Path: Control_Panel/Panel/To_Hydraulic_Control_001/Control_Valve_Relay_001
    m_Weight: 0
  - m_Path: Control_Panel/Panel/To_Hydraulic_Control_001/Motor_Start_Switch
    m_Weight: 0
  - m_Path: Control_Panel/Panel/To_Hydraulic_Control_001/Motor_Start_Switch/Hydraulic_Pump_On_Off
    m_Weight: 0
  - m_Path: Control_Panel/Panel/To_Hydraulic_Control_001/To_Power_Source
    m_Weight: 0
  - m_Path: Frame_Grp
    m_Weight: 0
  - m_Path: Frame_Grp/Frame
    m_Weight: 0
  - m_Path: Frame_Grp/Frame/Bolt_008
    m_Weight: 0
  - m_Path: Frame_Grp/Frame/Bolt_009
    m_Weight: 0
  - m_Path: Frame_Grp/Frame/Bolt_011
    m_Weight: 0
  - m_Path: Frame_Grp/Frame/Ring074_001
    m_Weight: 0
  - m_Path: Frame_Grp/Frame/Ring075_001
    m_Weight: 0
  - m_Path: Frame_Grp/Frame/Ring077_001
    m_Weight: 0
  - m_Path: Frame_Grp/Frame_001
    m_Weight: 0
  - m_Path: Hydraulic_System
    m_Weight: 0
  - m_Path: Hydraulic_System/Hydraulic_Cylinder_Grp
    m_Weight: 0
  - m_Path: Hydraulic_System/Hydraulic_Cylinder_Grp/Arm_To_Hydraulic_Cylinder
    m_Weight: 0
  - m_Path: Hydraulic_System/Hydraulic_Cylinder_Grp/Arm_To_Hydraulic_Cylinder/Bone_02
    m_Weight: 0
  - m_Path: Hydraulic_System/Hydraulic_Cylinder_Grp/Arm_To_Hydraulic_Cylinder/Bone_02/Bone_03
    m_Weight: 0
  - m_Path: Hydraulic_System/Hydraulic_Cylinder_Grp/Arm_To_Hydraulic_Cylinder/Bone_02/Bone_03/Bone_04
    m_Weight: 0
  - m_Path: Hydraulic_System/Hydraulic_Cylinder_Grp/Arm_To_Hydraulic_Cylinder/Bone_02/Bone_03/Bone_04/Bone_05
    m_Weight: 0
  - m_Path: Hydraulic_System/Hydraulic_Cylinder_Grp/Arm_To_Hydraulic_Cylinder/Bone_02/Bone_03/Bone_04/Bone_05/Bone_06
    m_Weight: 0
  - m_Path: Hydraulic_System/Hydraulic_Cylinder_Grp/Arm_To_Hydraulic_Cylinder/Bone_02/Bone_03/Bone_04/Bone_05/Bone_06/Bone_07
    m_Weight: 0
  - m_Path: Hydraulic_System/Hydraulic_Cylinder_Grp/Arm_To_Hydraulic_Cylinder/Bone_02/Bone_03/Bone_04/Bone_05/Bone_06/Bone_07/Bone_08
    m_Weight: 0
  - m_Path: Hydraulic_System/Hydraulic_Cylinder_Grp/Arm_To_Hydraulic_Cylinder/Bone_02/Bone_03/Bone_04/Bone_05/Bone_06/Bone_07/Bone_08/Bone_09
    m_Weight: 0
  - m_Path: Hydraulic_System/Hydraulic_Cylinder_Grp/Arm_To_Hydraulic_Cylinder/Bone_02/Bone_03/Bone_04/Bone_05/Bone_06/Bone_07/Bone_08/Bone_09/Bone_10
    m_Weight: 0
  - m_Path: Hydraulic_System/Hydraulic_Cylinder_Grp/Arm_To_Hydraulic_Cylinder/Bone_02/Bone_03/Bone_04/Bone_05/Bone_06/Bone_07/Bone_08/Bone_09/Bone_10/Bone_11
    m_Weight: 0
  - m_Path: Hydraulic_System/Hydraulic_Cylinder_Grp/Arm_To_Hydraulic_Cylinder/Bone_02/Bone_03/Bone_04/Bone_05/Bone_06/Bone_07/Bone_08/Bone_09/Bone_10/Bone_11/Bone_12
    m_Weight: 0
  - m_Path: Hydraulic_System/Hydraulic_Cylinder_Grp/Arm_To_Hydraulic_Cylinder/Bone_02/Bone_03/Bone_04/Bone_05/Bone_06/Bone_07/Bone_08/Bone_09/Bone_10/Bone_11/Bone_12/Bone_13
    m_Weight: 0
  - m_Path: Hydraulic_System/Hydraulic_Cylinder_Grp/Arm_To_Hydraulic_Cylinder/Bone_02/Bone_03/Bone_04/Bone_05/Bone_06/Bone_07/Bone_08/Bone_09/Bone_10/Bone_11/Bone_12/Bone_13/Bone_14
    m_Weight: 0
  - m_Path: Hydraulic_System/Hydraulic_Cylinder_Grp/Arm_To_Hydraulic_Cylinder/Bone_02/Bone_03/Bone_04/Bone_05/Bone_06/Bone_07/Bone_08/Bone_09/Bone_10/Bone_11/Bone_12/Bone_13/Bone_14/Bone_00
    m_Weight: 0
  - m_Path: Hydraulic_System/Hydraulic_Cylinder_Grp/Arm_To_Hydraulic_Cylinder/Bone_02/Bone_03/Bone_04/Bone_05/Bone_06/Bone_07/Bone_08/Bone_09/Bone_10/Bone_11/Bone_12/Bone_13/Bone_14/Bone_00/Bone_15
    m_Weight: 0
  - m_Path: Hydraulic_System/Hydraulic_Cylinder_Grp/Arm_To_Hydraulic_Cylinder/Bone_02/Bone_03/Bone_04/Bone_05/Bone_06/Bone_07/Bone_08/Bone_09/Bone_10/Bone_11/Bone_12/Bone_13/Bone_14/Bone_00/Bone_15/Bone_16
    m_Weight: 0
  - m_Path: Hydraulic_System/Hydraulic_Cylinder_Grp/Arm_To_Hydraulic_Cylinder/Bone_02/Bone_03/Bone_04/Bone_05/Bone_06/Bone_07/Bone_08/Bone_09/Bone_10/Bone_11/Bone_12/Bone_13/Bone_14/Bone_00/Bone_15/Bone_16/Bone_17
    m_Weight: 0
  - m_Path: Hydraulic_System/Hydraulic_Cylinder_Grp/Arm_To_Hydraulic_Cylinder/Bone_02/Bone_03/Bone_04/Bone_05/Bone_06/Bone_07/Bone_08/Bone_09/Bone_10/Bone_11/Bone_12/Bone_13/Bone_14/Bone_00/Bone_15/Bone_16/Bone_17/Bone_18
    m_Weight: 0
  - m_Path: Hydraulic_System/Hydraulic_Cylinder_Grp/Arm_To_Hydraulic_Cylinder/Bone_02/Bone_03/Bone_04/Bone_05/Bone_06/Bone_07/Bone_08/Bone_09/Bone_10/Bone_11/Bone_12/Bone_13/Bone_14/Bone_00/Bone_15/Bone_16/Bone_17/Bone_18/Bone_19
    m_Weight: 0
  - m_Path: Hydraulic_System/Hydraulic_Cylinder_Grp/Arm_To_Hydraulic_Cylinder/Bone_02/Bone_03/Bone_04/Bone_05/Bone_06/Bone_07/Bone_08/Bone_09/Bone_10/Bone_11/Bone_12/Bone_13/Bone_14/Bone_00/Bone_15/Bone_16/Bone_17/Bone_18/Bone_19/Bone_20
    m_Weight: 0
  - m_Path: Hydraulic_System/Hydraulic_Cylinder_Grp/Arm_To_Hydraulic_Cylinder/Bone_02/Bone_03/Bone_04/Bone_05/Bone_06/Bone_07/Bone_08/Bone_09/Bone_10/Bone_11/Bone_12/Bone_13/Bone_14/Bone_00/Bone_15/Bone_16/Bone_17/Bone_18/Bone_19/Bone_20/Bone_01
    m_Weight: 0
  - m_Path: Hydraulic_System/Hydraulic_Cylinder_Grp/Arm_To_Hydraulic_Cylinder/Bone_02/Bone_03/Bone_04/Bone_05/Bone_06/Bone_07/Bone_08/Bone_09/Bone_10/Bone_11/Bone_12/Bone_13/Bone_14/Bone_00/Bone_15/Bone_16/Bone_17/Bone_18/Bone_19/Bone_20/Bone_01/Bone_21
    m_Weight: 0
  - m_Path: Hydraulic_System/Hydraulic_Cylinder_Grp/Arm_To_Hydraulic_Cylinder/Bone_02/Bone_03/Bone_04/Bone_05/Bone_06/Bone_07/Bone_08/Bone_09/Bone_10/Bone_11/Bone_12/Bone_13/Bone_14/Bone_00/Bone_15/Bone_16/Bone_17/Bone_18/Bone_19/Bone_20/Bone_01/Bone_21/Bone_22
    m_Weight: 0
  - m_Path: Hydraulic_System/Hydraulic_Cylinder_Grp/Arm_To_Hydraulic_Cylinder/Bone_02/Bone_03/Bone_04/Bone_05/Bone_06/Bone_07/Bone_08/Bone_09/Bone_10/Bone_11/Bone_12/Bone_13/Bone_14/Bone_00/Bone_15/Bone_16/Bone_17/Bone_18/Bone_19/Bone_20/Bone_01/Bone_21/Bone_22/Bone_23
    m_Weight: 0
  - m_Path: Hydraulic_System/Hydraulic_Cylinder_Grp/Arm_To_Hydraulic_Cylinder/Bone_02/Bone_03/Bone_04/Bone_05/Bone_06/Bone_07/Bone_08/Bone_09/Bone_10/Bone_11/Bone_12/Bone_13/Bone_14/Bone_00/Bone_15/Bone_16/Bone_17/Bone_18/Bone_19/Bone_20/Bone_01/Bone_21/Bone_22/Bone_23/Bone_23_end
    m_Weight: 0
  - m_Path: Hydraulic_System/Hydraulic_Cylinder_Grp/Arm_To_Hydraulic_Cylinder_001
    m_Weight: 0
  - m_Path: Hydraulic_System/Hydraulic_Cylinder_Grp/Arm_To_Hydraulic_Cylinder_001/Bone_00
    m_Weight: 0
  - m_Path: Hydraulic_System/Hydraulic_Cylinder_Grp/Arm_To_Hydraulic_Cylinder_001/Bone_00/Bone_01
    m_Weight: 0
  - m_Path: Hydraulic_System/Hydraulic_Cylinder_Grp/Arm_To_Hydraulic_Cylinder_001/Bone_00/Bone_01/Bone_02
    m_Weight: 0
  - m_Path: Hydraulic_System/Hydraulic_Cylinder_Grp/Arm_To_Hydraulic_Cylinder_001/Bone_00/Bone_01/Bone_02/Bone_03
    m_Weight: 0
  - m_Path: Hydraulic_System/Hydraulic_Cylinder_Grp/Arm_To_Hydraulic_Cylinder_001/Bone_00/Bone_01/Bone_02/Bone_03/Bone_04
    m_Weight: 0
  - m_Path: Hydraulic_System/Hydraulic_Cylinder_Grp/Arm_To_Hydraulic_Cylinder_001/Bone_00/Bone_01/Bone_02/Bone_03/Bone_04/Bone_05
    m_Weight: 0
  - m_Path: Hydraulic_System/Hydraulic_Cylinder_Grp/Arm_To_Hydraulic_Cylinder_001/Bone_00/Bone_01/Bone_02/Bone_03/Bone_04/Bone_05/Bone_06
    m_Weight: 0
  - m_Path: Hydraulic_System/Hydraulic_Cylinder_Grp/Arm_To_Hydraulic_Cylinder_001/Bone_00/Bone_01/Bone_02/Bone_03/Bone_04/Bone_05/Bone_06/Bone_07
    m_Weight: 0
  - m_Path: Hydraulic_System/Hydraulic_Cylinder_Grp/Arm_To_Hydraulic_Cylinder_001/Bone_00/Bone_01/Bone_02/Bone_03/Bone_04/Bone_05/Bone_06/Bone_07/Bone_08
    m_Weight: 0
  - m_Path: Hydraulic_System/Hydraulic_Cylinder_Grp/Arm_To_Hydraulic_Cylinder_001/Bone_00/Bone_01/Bone_02/Bone_03/Bone_04/Bone_05/Bone_06/Bone_07/Bone_08/Bone_09
    m_Weight: 0
  - m_Path: Hydraulic_System/Hydraulic_Cylinder_Grp/Arm_To_Hydraulic_Cylinder_001/Bone_00/Bone_01/Bone_02/Bone_03/Bone_04/Bone_05/Bone_06/Bone_07/Bone_08/Bone_09/Bone_10
    m_Weight: 0
  - m_Path: Hydraulic_System/Hydraulic_Cylinder_Grp/Arm_To_Hydraulic_Cylinder_001/Bone_00/Bone_01/Bone_02/Bone_03/Bone_04/Bone_05/Bone_06/Bone_07/Bone_08/Bone_09/Bone_10/Bone_11
    m_Weight: 0
  - m_Path: Hydraulic_System/Hydraulic_Cylinder_Grp/Arm_To_Hydraulic_Cylinder_001/Bone_00/Bone_01/Bone_02/Bone_03/Bone_04/Bone_05/Bone_06/Bone_07/Bone_08/Bone_09/Bone_10/Bone_11/Bone_12
    m_Weight: 0
  - m_Path: Hydraulic_System/Hydraulic_Cylinder_Grp/Arm_To_Hydraulic_Cylinder_001/Bone_00/Bone_01/Bone_02/Bone_03/Bone_04/Bone_05/Bone_06/Bone_07/Bone_08/Bone_09/Bone_10/Bone_11/Bone_12/Bone_13
    m_Weight: 0
  - m_Path: Hydraulic_System/Hydraulic_Cylinder_Grp/Arm_To_Hydraulic_Cylinder_001/Bone_00/Bone_01/Bone_02/Bone_03/Bone_04/Bone_05/Bone_06/Bone_07/Bone_08/Bone_09/Bone_10/Bone_11/Bone_12/Bone_13/Bone_14
    m_Weight: 0
  - m_Path: Hydraulic_System/Hydraulic_Cylinder_Grp/Arm_To_Hydraulic_Cylinder_001/Bone_00/Bone_01/Bone_02/Bone_03/Bone_04/Bone_05/Bone_06/Bone_07/Bone_08/Bone_09/Bone_10/Bone_11/Bone_12/Bone_13/Bone_14/Bone_15
    m_Weight: 0
  - m_Path: Hydraulic_System/Hydraulic_Cylinder_Grp/Arm_To_Hydraulic_Cylinder_001/Bone_00/Bone_01/Bone_02/Bone_03/Bone_04/Bone_05/Bone_06/Bone_07/Bone_08/Bone_09/Bone_10/Bone_11/Bone_12/Bone_13/Bone_14/Bone_15/Bone_16
    m_Weight: 0
  - m_Path: Hydraulic_System/Hydraulic_Cylinder_Grp/Arm_To_Hydraulic_Cylinder_001/Bone_00/Bone_01/Bone_02/Bone_03/Bone_04/Bone_05/Bone_06/Bone_07/Bone_08/Bone_09/Bone_10/Bone_11/Bone_12/Bone_13/Bone_14/Bone_15/Bone_16/Bone_17
    m_Weight: 0
  - m_Path: Hydraulic_System/Hydraulic_Cylinder_Grp/Arm_To_Hydraulic_Cylinder_001/Bone_00/Bone_01/Bone_02/Bone_03/Bone_04/Bone_05/Bone_06/Bone_07/Bone_08/Bone_09/Bone_10/Bone_11/Bone_12/Bone_13/Bone_14/Bone_15/Bone_16/Bone_17/Bone_18
    m_Weight: 0
  - m_Path: Hydraulic_System/Hydraulic_Cylinder_Grp/Arm_To_Hydraulic_Cylinder_001/Bone_00/Bone_01/Bone_02/Bone_03/Bone_04/Bone_05/Bone_06/Bone_07/Bone_08/Bone_09/Bone_10/Bone_11/Bone_12/Bone_13/Bone_14/Bone_15/Bone_16/Bone_17/Bone_18/Bone_19
    m_Weight: 0
  - m_Path: Hydraulic_System/Hydraulic_Cylinder_Grp/Arm_To_Hydraulic_Cylinder_001/Bone_00/Bone_01/Bone_02/Bone_03/Bone_04/Bone_05/Bone_06/Bone_07/Bone_08/Bone_09/Bone_10/Bone_11/Bone_12/Bone_13/Bone_14/Bone_15/Bone_16/Bone_17/Bone_18/Bone_19/Bone_20
    m_Weight: 0
  - m_Path: Hydraulic_System/Hydraulic_Cylinder_Grp/Arm_To_Hydraulic_Cylinder_001/Bone_00/Bone_01/Bone_02/Bone_03/Bone_04/Bone_05/Bone_06/Bone_07/Bone_08/Bone_09/Bone_10/Bone_11/Bone_12/Bone_13/Bone_14/Bone_15/Bone_16/Bone_17/Bone_18/Bone_19/Bone_20/Bone_21
    m_Weight: 0
  - m_Path: Hydraulic_System/Hydraulic_Cylinder_Grp/Arm_To_Hydraulic_Cylinder_001/Bone_00/Bone_01/Bone_02/Bone_03/Bone_04/Bone_05/Bone_06/Bone_07/Bone_08/Bone_09/Bone_10/Bone_11/Bone_12/Bone_13/Bone_14/Bone_15/Bone_16/Bone_17/Bone_18/Bone_19/Bone_20/Bone_21/Bone_22
    m_Weight: 0
  - m_Path: Hydraulic_System/Hydraulic_Cylinder_Grp/Arm_To_Hydraulic_Cylinder_001/Bone_00/Bone_01/Bone_02/Bone_03/Bone_04/Bone_05/Bone_06/Bone_07/Bone_08/Bone_09/Bone_10/Bone_11/Bone_12/Bone_13/Bone_14/Bone_15/Bone_16/Bone_17/Bone_18/Bone_19/Bone_20/Bone_21/Bone_22/Bone_23
    m_Weight: 0
  - m_Path: Hydraulic_System/Hydraulic_Cylinder_Grp/Arm_To_Hydraulic_Cylinder_001/Bone_00/Bone_01/Bone_02/Bone_03/Bone_04/Bone_05/Bone_06/Bone_07/Bone_08/Bone_09/Bone_10/Bone_11/Bone_12/Bone_13/Bone_14/Bone_15/Bone_16/Bone_17/Bone_18/Bone_19/Bone_20/Bone_21/Bone_22/Bone_23/Bone_23_end
    m_Weight: 0
  - m_Path: Hydraulic_System/Hydraulic_Cylinder_Grp/Cylinder020_001
    m_Weight: 0
  - m_Path: Hydraulic_System/Hydraulic_Cylinder_Grp/Hydraulic_Cylinder_006
    m_Weight: 0
  - m_Path: Hydraulic_System/Hydraulic_Cylinder_Grp/Hydraulic_Cylinder_006/Bolt_041
    m_Weight: 0
  - m_Path: Hydraulic_System/Hydraulic_Cylinder_Grp/Hydraulic_Cylinder_006/Bolt_042
    m_Weight: 0
  - m_Path: Hydraulic_System/Hydraulic_Cylinder_Grp/Hydraulic_Cylinder_006/Bolt_045
    m_Weight: 0
  - m_Path: Hydraulic_System/Hydraulic_Cylinder_Grp/Hydraulic_Cylinder_006/Bolt_046
    m_Weight: 0
  - m_Path: Hydraulic_System/Hydraulic_Cylinder_Grp/Hydraulic_Cylinder_006/T_Joint_001
    m_Weight: 0
  - m_Path: Hydraulic_System/Hydraulic_Cylinder_Grp/Hydraulic_Cylinder_006/To_Hydraulic_Cylinder_008
    m_Weight: 0
  - m_Path: Hydraulic_System/Hydraulic_Cylinder_Grp/Hydraulic_Cylinder_007
    m_Weight: 0
  - m_Path: Hydraulic_System/Hydraulic_Cylinder_Grp/Hydraulic_Cylinder_008
    m_Weight: 0
  - m_Path: Hydraulic_System/Hydraulic_Cylinder_Grp/Hydraulic_Cylinder_008/Nut052_001
    m_Weight: 0
  - m_Path: Hydraulic_System/Hydraulic_Cylinder_Grp/Hydraulic_Cylinder_008/Nut053_001
    m_Weight: 0
  - m_Path: Hydraulic_System/Hydraulic_Cylinder_Grp/Hydraulic_Cylinder_008/Nut054_001
    m_Weight: 0
  - m_Path: Hydraulic_System/Hydraulic_Cylinder_Grp/Hydraulic_Cylinder_008/Ring068_001
    m_Weight: 0
  - m_Path: Hydraulic_System/Hydraulic_Cylinder_Grp/Hydraulic_Cylinder_008/Ring069_001
    m_Weight: 0
  - m_Path: Hydraulic_System/Hydraulic_Cylinder_Grp/Hydraulic_Cylinder_008/Ring070_001
    m_Weight: 0
  - m_Path: Hydraulic_System/Hydraulic_Cylinder_Grp/Hydraulic_Cylinder_009
    m_Weight: 0
  - m_Path: Hydraulic_System/Hydraulic_Cylinder_Grp/Hydraulic_Cylinder_010
    m_Weight: 0
  - m_Path: Hydraulic_System/Hydraulic_Cylinder_Grp/Hydraulic_Cylinder_011
    m_Weight: 0
  - m_Path: Hydraulic_System/Hydraulic_Cylinder_Grp/Measurement_Piston_Poppet_003
    m_Weight: 0
  - m_Path: Hydraulic_System/Hydraulic_Cylinder_Grp/Measurement_Piston_Poppet_003/Bolt_034
    m_Weight: 0
  - m_Path: Hydraulic_System/Hydraulic_Cylinder_Grp/Measurement_Piston_Poppet_003/Bolt_035
    m_Weight: 0
  - m_Path: Hydraulic_System/Hydraulic_Cylinder_Grp/Measurement_Piston_Poppet_003/Bolt_036
    m_Weight: 0
  - m_Path: Hydraulic_System/Hydraulic_Cylinder_Grp/Measurement_Piston_Poppet_003/Bolt_037
    m_Weight: 0
  - m_Path: Hydraulic_System/Hydraulic_Cylinder_Grp/Measurement_Piston_Poppet_003/Bolt_038
    m_Weight: 0
  - m_Path: Hydraulic_System/Hydraulic_Cylinder_Grp/Measurement_Piston_Poppet_003/Bolt_039
    m_Weight: 0
  - m_Path: Hydraulic_System/Hydraulic_Cylinder_Grp/Measurement_Piston_Poppet_003/Measurement_Piston_Poppet_004
    m_Weight: 0
  - m_Path: Hydraulic_System/Hydraulic_Cylinder_Grp/Measurement_Piston_Poppet_003/Measurement_Piston_Poppet_005
    m_Weight: 0
  - m_Path: Hydraulic_System/Hydraulic_Cylinder_Grp/Measurement_Piston_Poppet_003/Nut061_001
    m_Weight: 0
  - m_Path: Hydraulic_System/Hydraulic_Pump
    m_Weight: 0
  - m_Path: Hydraulic_System/Hydraulic_Pump/Arm_Pump_Suction
    m_Weight: 0
  - m_Path: Hydraulic_System/Hydraulic_Pump/Arm_Pump_Suction/Bone_11
    m_Weight: 0
  - m_Path: Hydraulic_System/Hydraulic_Pump/Arm_Pump_Suction/Bone_11/Bone_08
    m_Weight: 0
  - m_Path: Hydraulic_System/Hydraulic_Pump/Arm_Pump_Suction/Bone_11/Bone_08/Bone_00
    m_Weight: 0
  - m_Path: Hydraulic_System/Hydraulic_Pump/Arm_Pump_Suction/Bone_11/Bone_08/Bone_00/Bone_04
    m_Weight: 0
  - m_Path: Hydraulic_System/Hydraulic_Pump/Arm_Pump_Suction/Bone_11/Bone_08/Bone_00/Bone_04/Bone_04_end
    m_Weight: 0
  - m_Path: Hydraulic_System/Hydraulic_Pump/Arm_Pump_Suction/Pump_Suction_002
    m_Weight: 0
  - m_Path: Hydraulic_System/Hydraulic_Pump/Armature_005
    m_Weight: 0
  - m_Path: Hydraulic_System/Hydraulic_Pump/Armature_005/Bone_23
    m_Weight: 0
  - m_Path: Hydraulic_System/Hydraulic_Pump/Armature_005/Bone_23/Bone_22
    m_Weight: 0
  - m_Path: Hydraulic_System/Hydraulic_Pump/Armature_005/Bone_23/Bone_22/Bone_21
    m_Weight: 0
  - m_Path: Hydraulic_System/Hydraulic_Pump/Armature_005/Bone_23/Bone_22/Bone_21/Bone_02
    m_Weight: 0
  - m_Path: Hydraulic_System/Hydraulic_Pump/Armature_005/Bone_23/Bone_22/Bone_21/Bone_02/Bone_01
    m_Weight: 0
  - m_Path: Hydraulic_System/Hydraulic_Pump/Armature_005/Bone_23/Bone_22/Bone_21/Bone_02/Bone_01/Bone_20
    m_Weight: 0
  - m_Path: Hydraulic_System/Hydraulic_Pump/Armature_005/Bone_23/Bone_22/Bone_21/Bone_02/Bone_01/Bone_20/Bone_19
    m_Weight: 0
  - m_Path: Hydraulic_System/Hydraulic_Pump/Armature_005/Bone_23/Bone_22/Bone_21/Bone_02/Bone_01/Bone_20/Bone_19/Bone_00
    m_Weight: 0
  - m_Path: Hydraulic_System/Hydraulic_Pump/Armature_005/Bone_23/Bone_22/Bone_21/Bone_02/Bone_01/Bone_20/Bone_19/Bone_00/Bone_18
    m_Weight: 0
  - m_Path: Hydraulic_System/Hydraulic_Pump/Armature_005/Bone_23/Bone_22/Bone_21/Bone_02/Bone_01/Bone_20/Bone_19/Bone_00/Bone_18/Bone_17
    m_Weight: 0
  - m_Path: Hydraulic_System/Hydraulic_Pump/Armature_005/Bone_23/Bone_22/Bone_21/Bone_02/Bone_01/Bone_20/Bone_19/Bone_00/Bone_18/Bone_17/Bone_16
    m_Weight: 0
  - m_Path: Hydraulic_System/Hydraulic_Pump/Armature_005/Bone_23/Bone_22/Bone_21/Bone_02/Bone_01/Bone_20/Bone_19/Bone_00/Bone_18/Bone_17/Bone_16/Bone_15
    m_Weight: 0
  - m_Path: Hydraulic_System/Hydraulic_Pump/Armature_005/Bone_23/Bone_22/Bone_21/Bone_02/Bone_01/Bone_20/Bone_19/Bone_00/Bone_18/Bone_17/Bone_16/Bone_15/Bone_14
    m_Weight: 0
  - m_Path: Hydraulic_System/Hydraulic_Pump/Armature_005/Bone_23/Bone_22/Bone_21/Bone_02/Bone_01/Bone_20/Bone_19/Bone_00/Bone_18/Bone_17/Bone_16/Bone_15/Bone_14/Bone_13
    m_Weight: 0
  - m_Path: Hydraulic_System/Hydraulic_Pump/Armature_005/Bone_23/Bone_22/Bone_21/Bone_02/Bone_01/Bone_20/Bone_19/Bone_00/Bone_18/Bone_17/Bone_16/Bone_15/Bone_14/Bone_13/Bone_12
    m_Weight: 0
  - m_Path: Hydraulic_System/Hydraulic_Pump/Armature_005/Bone_23/Bone_22/Bone_21/Bone_02/Bone_01/Bone_20/Bone_19/Bone_00/Bone_18/Bone_17/Bone_16/Bone_15/Bone_14/Bone_13/Bone_12/Bone_11
    m_Weight: 0
  - m_Path: Hydraulic_System/Hydraulic_Pump/Armature_005/Bone_23/Bone_22/Bone_21/Bone_02/Bone_01/Bone_20/Bone_19/Bone_00/Bone_18/Bone_17/Bone_16/Bone_15/Bone_14/Bone_13/Bone_12/Bone_11/Bone_10
    m_Weight: 0
  - m_Path: Hydraulic_System/Hydraulic_Pump/Armature_005/Bone_23/Bone_22/Bone_21/Bone_02/Bone_01/Bone_20/Bone_19/Bone_00/Bone_18/Bone_17/Bone_16/Bone_15/Bone_14/Bone_13/Bone_12/Bone_11/Bone_10/Bone_09
    m_Weight: 0
  - m_Path: Hydraulic_System/Hydraulic_Pump/Armature_005/Bone_23/Bone_22/Bone_21/Bone_02/Bone_01/Bone_20/Bone_19/Bone_00/Bone_18/Bone_17/Bone_16/Bone_15/Bone_14/Bone_13/Bone_12/Bone_11/Bone_10/Bone_09/Bone_08
    m_Weight: 0
  - m_Path: Hydraulic_System/Hydraulic_Pump/Armature_005/Bone_23/Bone_22/Bone_21/Bone_02/Bone_01/Bone_20/Bone_19/Bone_00/Bone_18/Bone_17/Bone_16/Bone_15/Bone_14/Bone_13/Bone_12/Bone_11/Bone_10/Bone_09/Bone_08/Bone_07
    m_Weight: 0
  - m_Path: Hydraulic_System/Hydraulic_Pump/Armature_005/Bone_23/Bone_22/Bone_21/Bone_02/Bone_01/Bone_20/Bone_19/Bone_00/Bone_18/Bone_17/Bone_16/Bone_15/Bone_14/Bone_13/Bone_12/Bone_11/Bone_10/Bone_09/Bone_08/Bone_07/Bone_06
    m_Weight: 0
  - m_Path: Hydraulic_System/Hydraulic_Pump/Armature_005/Bone_23/Bone_22/Bone_21/Bone_02/Bone_01/Bone_20/Bone_19/Bone_00/Bone_18/Bone_17/Bone_16/Bone_15/Bone_14/Bone_13/Bone_12/Bone_11/Bone_10/Bone_09/Bone_08/Bone_07/Bone_06/Bone_05
    m_Weight: 0
  - m_Path: Hydraulic_System/Hydraulic_Pump/Armature_005/Bone_23/Bone_22/Bone_21/Bone_02/Bone_01/Bone_20/Bone_19/Bone_00/Bone_18/Bone_17/Bone_16/Bone_15/Bone_14/Bone_13/Bone_12/Bone_11/Bone_10/Bone_09/Bone_08/Bone_07/Bone_06/Bone_05/Bone_04
    m_Weight: 0
  - m_Path: Hydraulic_System/Hydraulic_Pump/Armature_005/Bone_23/Bone_22/Bone_21/Bone_02/Bone_01/Bone_20/Bone_19/Bone_00/Bone_18/Bone_17/Bone_16/Bone_15/Bone_14/Bone_13/Bone_12/Bone_11/Bone_10/Bone_09/Bone_08/Bone_07/Bone_06/Bone_05/Bone_04/Bone_03
    m_Weight: 0
  - m_Path: Hydraulic_System/Hydraulic_Pump/Armature_005/Bone_23/Bone_22/Bone_21/Bone_02/Bone_01/Bone_20/Bone_19/Bone_00/Bone_18/Bone_17/Bone_16/Bone_15/Bone_14/Bone_13/Bone_12/Bone_11/Bone_10/Bone_09/Bone_08/Bone_07/Bone_06/Bone_05/Bone_04/Bone_03/Bone_03_end
    m_Weight: 0
  - m_Path: Hydraulic_System/Hydraulic_Pump/Armature_005/Bone_23/Bone_22/Bone_21/Bone_02/Bone_01/Bone_20/Bone_19/Bone_00/Bone_18/Bone_17/Bone_16/Bone_15/Bone_14/Bone_13/Bone_12/Bone_11/Bone_10/Bone_09/Bone_08/Bone_07/Bone_06/Bone_05/Bone_04/Bone_03/Pump_To_Reservoir_007
    m_Weight: 0
  - m_Path: Hydraulic_System/Hydraulic_Pump/Grp_Hydraulic_System_Pump_&_Motor
    m_Weight: 0
  - m_Path: Hydraulic_System/Hydraulic_Pump/Grp_Hydraulic_System_Pump_&_Motor/Hydraulic_System_Pump_&_Motor
    m_Weight: 0
  - m_Path: Hydraulic_System/Hydraulic_Pump/Grp_Hydraulic_System_Pump_&_Motor/Hydraulic_System_Pump_&_Motor/Hydraulic_System_Pump_&_Motor_029
    m_Weight: 0
  - m_Path: Hydraulic_System/Hydraulic_Pump/Grp_Hydraulic_System_Pump_&_Motor/Hydraulic_System_Pump_&_Motor/Hydraulic_System_Pump_&_Motor_030
    m_Weight: 0
  - m_Path: Hydraulic_System/Hydraulic_Pump/Grp_Hydraulic_System_Pump_&_Motor/Hydraulic_System_Pump_&_Motor/Hydraulic_System_Pump_&_Motor_032
    m_Weight: 0
  - m_Path: Hydraulic_System/Hydraulic_Pump/Grp_Hydraulic_System_Pump_&_Motor/Hydraulic_System_Pump_&_Motor/Hydraulic_System_Pump_&_Motor_032_015
    m_Weight: 0
  - m_Path: Hydraulic_System/Hydraulic_Pump/Grp_Hydraulic_System_Pump_&_Motor/Hydraulic_System_Pump_&_Motor_020
    m_Weight: 0
  - m_Path: Hydraulic_System/Hydraulic_Pump/Grp_Hydraulic_System_Pump_&_Motor/Hydraulic_System_Pump_&_Motor_020/Hydraulic_System_Pump_&_Motor_001
    m_Weight: 0
  - m_Path: Hydraulic_System/Hydraulic_Pump/Grp_Hydraulic_System_Pump_&_Motor/Hydraulic_System_Pump_&_Motor_020/Hydraulic_System_Pump_&_Motor_002_002
    m_Weight: 0
  - m_Path: Hydraulic_System/Hydraulic_Pump/Grp_Hydraulic_System_Pump_&_Motor/Hydraulic_System_Pump_&_Motor_020/Hydraulic_System_Pump_&_Motor_003_004
    m_Weight: 0
  - m_Path: Hydraulic_System/Hydraulic_Pump/Grp_Hydraulic_System_Pump_&_Motor/Hydraulic_System_Pump_&_Motor_020/Hydraulic_System_Pump_&_Motor_004_004
    m_Weight: 0
  - m_Path: Hydraulic_System/Hydraulic_Pump/Grp_Hydraulic_System_Pump_&_Motor/Hydraulic_System_Pump_&_Motor_020/Hydraulic_System_Pump_&_Motor_005_004
    m_Weight: 0
  - m_Path: Hydraulic_System/Hydraulic_Pump/Grp_Hydraulic_System_Pump_&_Motor/Hydraulic_System_Pump_&_Motor_020/Hydraulic_System_Pump_&_Motor_006_004
    m_Weight: 0
  - m_Path: Hydraulic_System/Hydraulic_Pump/Grp_Hydraulic_System_Pump_&_Motor/Hydraulic_System_Pump_&_Motor_020/Hydraulic_System_Pump_&_Motor_022
    m_Weight: 0
  - m_Path: Hydraulic_System/Hydraulic_Pump/Hydraulic_Pressure_Gauge
    m_Weight: 0
  - m_Path: Hydraulic_System/Hydraulic_Pump/Hydraulic_Pressure_Gauge_001
    m_Weight: 0
  - m_Path: Hydraulic_System/Hydraulic_Pump/Hydraulic_Pressure_Gauge_002
    m_Weight: 0
  - m_Path: Hydraulic_System/Hydraulic_Pump/Hydraulic_System_Pump_&_Motor_002
    m_Weight: 0
  - m_Path: Hydraulic_System/Hydraulic_Pump/Hydraulic_System_Pump_&_Motor_002_001
    m_Weight: 0
  - m_Path: Hydraulic_System/Hydraulic_Pump/Hydraulic_System_Pump_&_Motor_003
    m_Weight: 0
  - m_Path: Hydraulic_System/Hydraulic_Pump/Hydraulic_System_Pump_&_Motor_003_001
    m_Weight: 0
  - m_Path: Hydraulic_System/Hydraulic_Pump/Hydraulic_System_Pump_&_Motor_003_002
    m_Weight: 0
  - m_Path: Hydraulic_System/Hydraulic_Pump/Hydraulic_System_Pump_&_Motor_003_003
    m_Weight: 0
  - m_Path: Hydraulic_System/Hydraulic_Pump/Hydraulic_System_Pump_&_Motor_004
    m_Weight: 0
  - m_Path: Hydraulic_System/Hydraulic_Pump/Hydraulic_System_Pump_&_Motor_004_001
    m_Weight: 0
  - m_Path: Hydraulic_System/Hydraulic_Pump/Hydraulic_System_Pump_&_Motor_004_002
    m_Weight: 0
  - m_Path: Hydraulic_System/Hydraulic_Pump/Hydraulic_System_Pump_&_Motor_004_003
    m_Weight: 0
  - m_Path: Hydraulic_System/Hydraulic_Pump/Hydraulic_System_Pump_&_Motor_005
    m_Weight: 0
  - m_Path: Hydraulic_System/Hydraulic_Pump/Hydraulic_System_Pump_&_Motor_005_001
    m_Weight: 0
  - m_Path: Hydraulic_System/Hydraulic_Pump/Hydraulic_System_Pump_&_Motor_005_002
    m_Weight: 0
  - m_Path: Hydraulic_System/Hydraulic_Pump/Hydraulic_System_Pump_&_Motor_005_003
    m_Weight: 0
  - m_Path: Hydraulic_System/Hydraulic_Pump/Hydraulic_System_Pump_&_Motor_006
    m_Weight: 0
  - m_Path: Hydraulic_System/Hydraulic_Pump/Hydraulic_System_Pump_&_Motor_006_001
    m_Weight: 0
  - m_Path: Hydraulic_System/Hydraulic_Pump/Hydraulic_System_Pump_&_Motor_006_002
    m_Weight: 0
  - m_Path: Hydraulic_System/Hydraulic_Pump/Hydraulic_System_Pump_&_Motor_006_003
    m_Weight: 0
  - m_Path: Hydraulic_System/Hydraulic_Pump/Hydraulic_System_Pump_&_Motor_007
    m_Weight: 0
  - m_Path: Hydraulic_System/Hydraulic_Pump/Hydraulic_System_Pump_&_Motor_007_001
    m_Weight: 0
  - m_Path: Hydraulic_System/Hydraulic_Pump/Hydraulic_System_Pump_&_Motor_007_002
    m_Weight: 0
  - m_Path: Hydraulic_System/Hydraulic_Pump/Hydraulic_System_Pump_&_Motor_007_003
    m_Weight: 0
  - m_Path: Hydraulic_System/Hydraulic_Pump/Hydraulic_System_Pump_&_Motor_008
    m_Weight: 0
  - m_Path: Hydraulic_System/Hydraulic_Pump/Hydraulic_System_Pump_&_Motor_008_001
    m_Weight: 0
  - m_Path: Hydraulic_System/Hydraulic_Pump/Hydraulic_System_Pump_&_Motor_008_002
    m_Weight: 0
  - m_Path: Hydraulic_System/Hydraulic_Pump/Hydraulic_System_Pump_&_Motor_008_003
    m_Weight: 0
  - m_Path: Hydraulic_System/Hydraulic_Pump/Hydraulic_System_Pump_&_Motor_009
    m_Weight: 0
  - m_Path: Hydraulic_System/Hydraulic_Pump/Hydraulic_System_Pump_&_Motor_009_001
    m_Weight: 0
  - m_Path: Hydraulic_System/Hydraulic_Pump/Hydraulic_System_Pump_&_Motor_009_002
    m_Weight: 0
  - m_Path: Hydraulic_System/Hydraulic_Pump/Hydraulic_System_Pump_&_Motor_009_003
    m_Weight: 0
  - m_Path: Hydraulic_System/Hydraulic_Pump/Hydraulic_System_Pump_&_Motor_010
    m_Weight: 0
  - m_Path: Hydraulic_System/Hydraulic_Pump/Hydraulic_System_Pump_&_Motor_010_001
    m_Weight: 0
  - m_Path: Hydraulic_System/Hydraulic_Pump/Hydraulic_System_Pump_&_Motor_010_002
    m_Weight: 0
  - m_Path: Hydraulic_System/Hydraulic_Pump/Hydraulic_System_Pump_&_Motor_010_003
    m_Weight: 0
  - m_Path: Hydraulic_System/Hydraulic_Pump/Hydraulic_System_Pump_&_Motor_011
    m_Weight: 0
  - m_Path: Hydraulic_System/Hydraulic_Pump/Hydraulic_System_Pump_&_Motor_011_001
    m_Weight: 0
  - m_Path: Hydraulic_System/Hydraulic_Pump/Hydraulic_System_Pump_&_Motor_011_002
    m_Weight: 0
  - m_Path: Hydraulic_System/Hydraulic_Pump/Hydraulic_System_Pump_&_Motor_011_003
    m_Weight: 0
  - m_Path: Hydraulic_System/Hydraulic_Pump/Hydraulic_System_Pump_&_Motor_012
    m_Weight: 0
  - m_Path: Hydraulic_System/Hydraulic_Pump/Hydraulic_System_Pump_&_Motor_012_001
    m_Weight: 0
  - m_Path: Hydraulic_System/Hydraulic_Pump/Hydraulic_System_Pump_&_Motor_012_002
    m_Weight: 0
  - m_Path: Hydraulic_System/Hydraulic_Pump/Hydraulic_System_Pump_&_Motor_012_003
    m_Weight: 0
  - m_Path: Hydraulic_System/Hydraulic_Pump/Hydraulic_System_Pump_&_Motor_013
    m_Weight: 0
  - m_Path: Hydraulic_System/Hydraulic_Pump/Hydraulic_System_Pump_&_Motor_013_001
    m_Weight: 0
  - m_Path: Hydraulic_System/Hydraulic_Pump/Hydraulic_System_Pump_&_Motor_013_002
    m_Weight: 0
  - m_Path: Hydraulic_System/Hydraulic_Pump/Hydraulic_System_Pump_&_Motor_013_003
    m_Weight: 0
  - m_Path: Hydraulic_System/Hydraulic_Pump/Hydraulic_System_Pump_&_Motor_015
    m_Weight: 0
  - m_Path: Hydraulic_System/Hydraulic_Pump/Hydraulic_System_Pump_&_Motor_015_001
    m_Weight: 0
  - m_Path: Hydraulic_System/Hydraulic_Pump/Hydraulic_System_Pump_&_Motor_015_002
    m_Weight: 0
  - m_Path: Hydraulic_System/Hydraulic_Pump/Hydraulic_System_Pump_&_Motor_015_003
    m_Weight: 0
  - m_Path: Hydraulic_System/Hydraulic_Pump/Hydraulic_System_Pump_&_Motor_016
    m_Weight: 0
  - m_Path: Hydraulic_System/Hydraulic_Pump/Hydraulic_System_Pump_&_Motor_016_001
    m_Weight: 0
  - m_Path: Hydraulic_System/Hydraulic_Pump/Hydraulic_System_Pump_&_Motor_016_002
    m_Weight: 0
  - m_Path: Hydraulic_System/Hydraulic_Pump/Hydraulic_System_Pump_&_Motor_016_003
    m_Weight: 0
  - m_Path: Hydraulic_System/Hydraulic_Pump/Hydraulic_System_Pump_&_Motor_017
    m_Weight: 0
  - m_Path: Hydraulic_System/Hydraulic_Pump/Hydraulic_System_Pump_&_Motor_017_001
    m_Weight: 0
  - m_Path: Hydraulic_System/Hydraulic_Pump/Hydraulic_System_Pump_&_Motor_017_002
    m_Weight: 0
  - m_Path: Hydraulic_System/Hydraulic_Pump/Hydraulic_System_Pump_&_Motor_017_003
    m_Weight: 0
  - m_Path: Hydraulic_System/Hydraulic_Pump/Hydraulic_System_Pump_&_Motor_018
    m_Weight: 0
  - m_Path: Hydraulic_System/Hydraulic_Pump/Hydraulic_System_Pump_&_Motor_018_001
    m_Weight: 0
  - m_Path: Hydraulic_System/Hydraulic_Pump/Hydraulic_System_Pump_&_Motor_018_002
    m_Weight: 0
  - m_Path: Hydraulic_System/Hydraulic_Pump/Hydraulic_System_Pump_&_Motor_018_003
    m_Weight: 0
  - m_Path: Hydraulic_System/Hydraulic_Pump/Hydraulic_System_Pump_&_Motor_023
    m_Weight: 0
  - m_Path: Hydraulic_System/Hydraulic_Pump/Hydraulic_System_Pump_&_Motor_024
    m_Weight: 0
  - m_Path: Hydraulic_System/Hydraulic_Pump/Hydraulic_System_Pump_&_Motor_025
    m_Weight: 0
  - m_Path: Hydraulic_System/Hydraulic_Pump/Hydraulic_System_Pump_&_Motor_026
    m_Weight: 0
  - m_Path: Hydraulic_System/Hydraulic_Pump/Hydraulic_System_Pump_&_Motor_027
    m_Weight: 0
  - m_Path: Hydraulic_System/Hydraulic_Pump/Hydraulic_System_Pump_&_Motor_028
    m_Weight: 0
  - m_Path: Hydraulic_System/Hydraulic_Pump/Jarum_Indicator_001
    m_Weight: 0
  - m_Path: Hydraulic_System/Hydraulic_Pump/Pump_Discharge.001
    m_Weight: 0
  - m_Path: Hydraulic_System/Hydraulic_Pump/Pump_Discharge.001/Bone_02
    m_Weight: 0
  - m_Path: Hydraulic_System/Hydraulic_Pump/Pump_Discharge.001/Bone_02/Bone_00
    m_Weight: 0
  - m_Path: Hydraulic_System/Hydraulic_Pump/Pump_Discharge.001/Bone_02/Bone_00/Bone_03
    m_Weight: 0
  - m_Path: Hydraulic_System/Hydraulic_Pump/Pump_Discharge.001/Bone_02/Bone_00/Bone_03/Bone_04
    m_Weight: 0
  - m_Path: Hydraulic_System/Hydraulic_Pump/Pump_Discharge.001/Bone_02/Bone_00/Bone_03/Bone_04/Bone_05
    m_Weight: 0
  - m_Path: Hydraulic_System/Hydraulic_Pump/Pump_Discharge.001/Bone_02/Bone_00/Bone_03/Bone_04/Bone_05/Bone_06
    m_Weight: 0
  - m_Path: Hydraulic_System/Hydraulic_Pump/Pump_Discharge.001/Bone_02/Bone_00/Bone_03/Bone_04/Bone_05/Bone_06/Bone_07
    m_Weight: 0
  - m_Path: Hydraulic_System/Hydraulic_Pump/Pump_Discharge.001/Bone_02/Bone_00/Bone_03/Bone_04/Bone_05/Bone_06/Bone_07/Bone_08
    m_Weight: 0
  - m_Path: Hydraulic_System/Hydraulic_Pump/Pump_Discharge.001/Bone_02/Bone_00/Bone_03/Bone_04/Bone_05/Bone_06/Bone_07/Bone_08/Bone_09
    m_Weight: 0
  - m_Path: Hydraulic_System/Hydraulic_Pump/Pump_Discharge.001/Bone_02/Bone_00/Bone_03/Bone_04/Bone_05/Bone_06/Bone_07/Bone_08/Bone_09/Bone_10
    m_Weight: 0
  - m_Path: Hydraulic_System/Hydraulic_Pump/Pump_Discharge.001/Bone_02/Bone_00/Bone_03/Bone_04/Bone_05/Bone_06/Bone_07/Bone_08/Bone_09/Bone_10/Bone_11
    m_Weight: 0
  - m_Path: Hydraulic_System/Hydraulic_Pump/Pump_Discharge.001/Bone_02/Bone_00/Bone_03/Bone_04/Bone_05/Bone_06/Bone_07/Bone_08/Bone_09/Bone_10/Bone_11/Bone_01
    m_Weight: 0
  - m_Path: Hydraulic_System/Hydraulic_Pump/Pump_Discharge.001/Bone_02/Bone_00/Bone_03/Bone_04/Bone_05/Bone_06/Bone_07/Bone_08/Bone_09/Bone_10/Bone_11/Bone_01/Bone_01_end
    m_Weight: 0
  - m_Path: Hydraulic_System/Hydraulic_Pump/Pump_Discharge.001/Bone_02/Bone_00/Bone_03/Bone_04/Bone_05/Bone_06/Bone_07/Bone_08/Bone_09/Bone_10/Bone_11/Bone_01/To_Hydraulic_Cylinder_002
    m_Weight: 0
  - m_Path: Hydraulic_System/Hydraulic_Pump/Pump_To_Reservoir_001
    m_Weight: 0
  - m_Path: Hydraulic_System/Hydraulic_Pump/Pump_To_Reservoir_002
    m_Weight: 0
  - m_Path: Hydraulic_System/Hydraulic_Pump/Pump_To_Reservoir_003
    m_Weight: 0
  - m_Path: Hydraulic_System/Hydraulic_Pump/Pump_To_Reservoir_004
    m_Weight: 0
  - m_Path: Hydraulic_System/Hydrolic_Reservoir
    m_Weight: 0
  - m_Path: Hydraulic_System/Hydrolic_Reservoir/Arm_Reservoir_To_Hydraulic
    m_Weight: 0
  - m_Path: Hydraulic_System/Hydrolic_Reservoir/Arm_Reservoir_To_Hydraulic/Bone_00
    m_Weight: 0
  - m_Path: Hydraulic_System/Hydrolic_Reservoir/Arm_Reservoir_To_Hydraulic/Bone_00/Bone_03
    m_Weight: 0
  - m_Path: Hydraulic_System/Hydrolic_Reservoir/Arm_Reservoir_To_Hydraulic/Bone_00/Bone_03/Bone_01
    m_Weight: 0
  - m_Path: Hydraulic_System/Hydrolic_Reservoir/Arm_Reservoir_To_Hydraulic/Bone_00/Bone_03/Bone_01/Bone_04
    m_Weight: 0
  - m_Path: Hydraulic_System/Hydrolic_Reservoir/Arm_Reservoir_To_Hydraulic/Bone_00/Bone_03/Bone_01/Bone_04/Bone_05
    m_Weight: 0
  - m_Path: Hydraulic_System/Hydrolic_Reservoir/Arm_Reservoir_To_Hydraulic/Bone_00/Bone_03/Bone_01/Bone_04/Bone_05/Bone_02
    m_Weight: 0
  - m_Path: Hydraulic_System/Hydrolic_Reservoir/Arm_Reservoir_To_Hydraulic/Bone_00/Bone_03/Bone_01/Bone_04/Bone_05/Bone_02/Bone_06
    m_Weight: 0
  - m_Path: Hydraulic_System/Hydrolic_Reservoir/Arm_Reservoir_To_Hydraulic/Bone_00/Bone_03/Bone_01/Bone_04/Bone_05/Bone_02/Bone_06/Bone_07
    m_Weight: 0
  - m_Path: Hydraulic_System/Hydrolic_Reservoir/Arm_Reservoir_To_Hydraulic/Bone_00/Bone_03/Bone_01/Bone_04/Bone_05/Bone_02/Bone_06/Bone_07/Bone_08
    m_Weight: 0
  - m_Path: Hydraulic_System/Hydrolic_Reservoir/Arm_Reservoir_To_Hydraulic/Bone_00/Bone_03/Bone_01/Bone_04/Bone_05/Bone_02/Bone_06/Bone_07/Bone_08/Bone_09
    m_Weight: 0
  - m_Path: Hydraulic_System/Hydrolic_Reservoir/Arm_Reservoir_To_Hydraulic/Bone_00/Bone_03/Bone_01/Bone_04/Bone_05/Bone_02/Bone_06/Bone_07/Bone_08/Bone_09/Bone_10
    m_Weight: 0
  - m_Path: Hydraulic_System/Hydrolic_Reservoir/Arm_Reservoir_To_Hydraulic/Bone_00/Bone_03/Bone_01/Bone_04/Bone_05/Bone_02/Bone_06/Bone_07/Bone_08/Bone_09/Bone_10/Bone_11
    m_Weight: 0
  - m_Path: Hydraulic_System/Hydrolic_Reservoir/Arm_Reservoir_To_Hydraulic/Bone_00/Bone_03/Bone_01/Bone_04/Bone_05/Bone_02/Bone_06/Bone_07/Bone_08/Bone_09/Bone_10/Bone_11/Bone_12
    m_Weight: 0
  - m_Path: Hydraulic_System/Hydrolic_Reservoir/Arm_Reservoir_To_Hydraulic/Bone_00/Bone_03/Bone_01/Bone_04/Bone_05/Bone_02/Bone_06/Bone_07/Bone_08/Bone_09/Bone_10/Bone_11/Bone_12/Bone_13
    m_Weight: 0
  - m_Path: Hydraulic_System/Hydrolic_Reservoir/Arm_Reservoir_To_Hydraulic/Bone_00/Bone_03/Bone_01/Bone_04/Bone_05/Bone_02/Bone_06/Bone_07/Bone_08/Bone_09/Bone_10/Bone_11/Bone_12/Bone_13/Bone_14
    m_Weight: 0
  - m_Path: Hydraulic_System/Hydrolic_Reservoir/Arm_Reservoir_To_Hydraulic/Bone_00/Bone_03/Bone_01/Bone_04/Bone_05/Bone_02/Bone_06/Bone_07/Bone_08/Bone_09/Bone_10/Bone_11/Bone_12/Bone_13/Bone_14/Bone_15
    m_Weight: 0
  - m_Path: Hydraulic_System/Hydrolic_Reservoir/Arm_Reservoir_To_Hydraulic/Bone_00/Bone_03/Bone_01/Bone_04/Bone_05/Bone_02/Bone_06/Bone_07/Bone_08/Bone_09/Bone_10/Bone_11/Bone_12/Bone_13/Bone_14/Bone_15/Bone_16
    m_Weight: 0
  - m_Path: Hydraulic_System/Hydrolic_Reservoir/Arm_Reservoir_To_Hydraulic/Bone_00/Bone_03/Bone_01/Bone_04/Bone_05/Bone_02/Bone_06/Bone_07/Bone_08/Bone_09/Bone_10/Bone_11/Bone_12/Bone_13/Bone_14/Bone_15/Bone_16/Bone_17
    m_Weight: 0
  - m_Path: Hydraulic_System/Hydrolic_Reservoir/Arm_Reservoir_To_Hydraulic/Bone_00/Bone_03/Bone_01/Bone_04/Bone_05/Bone_02/Bone_06/Bone_07/Bone_08/Bone_09/Bone_10/Bone_11/Bone_12/Bone_13/Bone_14/Bone_15/Bone_16/Bone_17/Bone_18
    m_Weight: 0
  - m_Path: Hydraulic_System/Hydrolic_Reservoir/Arm_Reservoir_To_Hydraulic/Bone_00/Bone_03/Bone_01/Bone_04/Bone_05/Bone_02/Bone_06/Bone_07/Bone_08/Bone_09/Bone_10/Bone_11/Bone_12/Bone_13/Bone_14/Bone_15/Bone_16/Bone_17/Bone_18/Bone_19
    m_Weight: 0
  - m_Path: Hydraulic_System/Hydrolic_Reservoir/Arm_Reservoir_To_Hydraulic/Bone_00/Bone_03/Bone_01/Bone_04/Bone_05/Bone_02/Bone_06/Bone_07/Bone_08/Bone_09/Bone_10/Bone_11/Bone_12/Bone_13/Bone_14/Bone_15/Bone_16/Bone_17/Bone_18/Bone_19/Bone_20
    m_Weight: 0
  - m_Path: Hydraulic_System/Hydrolic_Reservoir/Arm_Reservoir_To_Hydraulic/Bone_00/Bone_03/Bone_01/Bone_04/Bone_05/Bone_02/Bone_06/Bone_07/Bone_08/Bone_09/Bone_10/Bone_11/Bone_12/Bone_13/Bone_14/Bone_15/Bone_16/Bone_17/Bone_18/Bone_19/Bone_20/Bone_21
    m_Weight: 0
  - m_Path: Hydraulic_System/Hydrolic_Reservoir/Arm_Reservoir_To_Hydraulic/Bone_00/Bone_03/Bone_01/Bone_04/Bone_05/Bone_02/Bone_06/Bone_07/Bone_08/Bone_09/Bone_10/Bone_11/Bone_12/Bone_13/Bone_14/Bone_15/Bone_16/Bone_17/Bone_18/Bone_19/Bone_20/Bone_21/Bone_22
    m_Weight: 0
  - m_Path: Hydraulic_System/Hydrolic_Reservoir/Arm_Reservoir_To_Hydraulic/Bone_00/Bone_03/Bone_01/Bone_04/Bone_05/Bone_02/Bone_06/Bone_07/Bone_08/Bone_09/Bone_10/Bone_11/Bone_12/Bone_13/Bone_14/Bone_15/Bone_16/Bone_17/Bone_18/Bone_19/Bone_20/Bone_21/Bone_22/Bone_23
    m_Weight: 0
  - m_Path: Hydraulic_System/Hydrolic_Reservoir/Arm_Reservoir_To_Hydraulic/Bone_00/Bone_03/Bone_01/Bone_04/Bone_05/Bone_02/Bone_06/Bone_07/Bone_08/Bone_09/Bone_10/Bone_11/Bone_12/Bone_13/Bone_14/Bone_15/Bone_16/Bone_17/Bone_18/Bone_19/Bone_20/Bone_21/Bone_22/Bone_23/Bone_23_end
    m_Weight: 0
  - m_Path: Hydraulic_System/Hydrolic_Reservoir/Hydraulic_Control_Valve_001
    m_Weight: 0
  - m_Path: Hydraulic_System/Hydrolic_Reservoir/Hydraulic_Control_Valve_001/Bolt_Hydraulic_Grp_2
    m_Weight: 0
  - m_Path: Hydraulic_System/Hydrolic_Reservoir/Hydraulic_Control_Valve_001/Bolt_Hydraulic_Grp_2/Bolt_&_Screw_014
    m_Weight: 0
  - m_Path: Hydraulic_System/Hydrolic_Reservoir/Hydraulic_Control_Valve_001/Bolt_Hydraulic_Grp_2/Bolt_&_Screw_014_001
    m_Weight: 0
  - m_Path: Hydraulic_System/Hydrolic_Reservoir/Hydraulic_Control_Valve_001/Bolt_Hydraulic_Grp_2/Bolt_&_Screw_014_002
    m_Weight: 0
  - m_Path: Hydraulic_System/Hydrolic_Reservoir/Hydraulic_Control_Valve_001/Bolt_Hydraulic_Grp_2/Bolt_&_Screw_014_003
    m_Weight: 0
  - m_Path: Hydraulic_System/Hydrolic_Reservoir/Hydraulic_Control_Valve_001/Bolt_Hydraulic_Grp_2/Bolt_&_Screw_014_004
    m_Weight: 0
  - m_Path: Hydraulic_System/Hydrolic_Reservoir/Hydraulic_Control_Valve_001/Bolt_Hydraulic_Grp_2/Bolt_&_Screw_014_005
    m_Weight: 0
  - m_Path: Hydraulic_System/Hydrolic_Reservoir/Hydraulic_Control_Valve_001/Bolt_Hydraulic_Grp_2/Bolt_&_Screw_014_006
    m_Weight: 0
  - m_Path: Hydraulic_System/Hydrolic_Reservoir/Hydraulic_Control_Valve_001/Bolt_Hydraulic_Grp_2/Bolt_&_Screw_014_007
    m_Weight: 0
  - m_Path: Hydraulic_System/Hydrolic_Reservoir/Hydraulic_Control_Valve_001/Bolt_Hydraulic_Grp_2/Bolt_&_Screw_014_008
    m_Weight: 0
  - m_Path: Hydraulic_System/Hydrolic_Reservoir/Hydraulic_Control_Valve_001/Bolt_Hydraulic_Grp_2/Bolt_&_Screw_014_009
    m_Weight: 0
  - m_Path: Hydraulic_System/Hydrolic_Reservoir/Hydraulic_Control_Valve_001/Bolt_Hydraulic_Grp_2/Bolt_&_Screw_014_010
    m_Weight: 0
  - m_Path: Hydraulic_System/Hydrolic_Reservoir/Hydraulic_Control_Valve_001/Bolt_Hydraulic_Grp_2/Bolt_&_Screw_014_011
    m_Weight: 0
  - m_Path: Hydraulic_System/Hydrolic_Reservoir/Hydraulic_Control_Valve_001/Bolt_Hydraulic_Grp_2/Bolt_&_Screw_014_012
    m_Weight: 0
  - m_Path: Hydraulic_System/Hydrolic_Reservoir/Hydraulic_Control_Valve_001/Bolt_Hydraulic_Grp_2/Bolt_&_Screw_014_013
    m_Weight: 0
  - m_Path: Hydraulic_System/Hydrolic_Reservoir/Hydraulic_Control_Valve_001/Bolt_Hydraulic_Grp_2/Bolt_&_Screw_014_014
    m_Weight: 0
  - m_Path: Hydraulic_System/Hydrolic_Reservoir/Hydraulic_Control_Valve_001/Bolt_Hydraulic_Grp_2/Bolt_&_Screw_014_018
    m_Weight: 0
  - m_Path: Hydraulic_System/Hydrolic_Reservoir/Hydraulic_Control_Valve_001/Bolt_Hydraulic_Grp_2/Bolt_&_Screw_014_019
    m_Weight: 0
  - m_Path: Hydraulic_System/Hydrolic_Reservoir/Hydraulic_Control_Valve_001/Bolt_Hydraulic_Grp_2/Bolt_&_Screw_014_021
    m_Weight: 0
  - m_Path: Hydraulic_System/Hydrolic_Reservoir/Hydraulic_Control_Valve_001/Bolt_Hydraulic_Grp_2/Bolt_&_Screw_014_030
    m_Weight: 0
  - m_Path: Hydraulic_System/Hydrolic_Reservoir/Hydraulic_Control_Valve_001/Bolt_Hydraulic_Grp_2/Bolt_&_Screw_014_031
    m_Weight: 0
  - m_Path: Hydraulic_System/Hydrolic_Reservoir/Hydraulic_Control_Valve_001/Bolt_Hydraulic_Grp_2/Bolt_&_Screw_014_032
    m_Weight: 0
  - m_Path: Hydraulic_System/Hydrolic_Reservoir/Hydraulic_Control_Valve_001/Bolt_Hydraulic_Grp_2/Bolt_&_Screw_014_033
    m_Weight: 0
  - m_Path: Hydraulic_System/Hydrolic_Reservoir/Hydraulic_Control_Valve_001/Bolt_Hydraulic_Grp_2/Bolt_&_Screw_014_034
    m_Weight: 0
  - m_Path: Hydraulic_System/Hydrolic_Reservoir/Hydraulic_Control_Valve_001/Bolt_Hydraulic_Grp_2/Bolt_&_Screw_014_035
    m_Weight: 0
  - m_Path: Hydraulic_System/Hydrolic_Reservoir/Hydraulic_Control_Valve_001/Bolt_Hydraulic_Grp_2/Bolt_&_Screw_014_036
    m_Weight: 0
  - m_Path: Hydraulic_System/Hydrolic_Reservoir/Hydraulic_Control_Valve_001/Bolt_Hydraulic_Grp_2/Bolt_&_Screw_014_037
    m_Weight: 0
  - m_Path: Hydraulic_System/Hydrolic_Reservoir/Hydraulic_Control_Valve_001/Bolt_Hydraulic_Grp_2/Bolt_&_Screw_014_038
    m_Weight: 0
  - m_Path: Hydraulic_System/Hydrolic_Reservoir/Hydraulic_Control_Valve_001/Bolt_Hydraulic_Grp_2/Bolt_&_Screw_014_039
    m_Weight: 0
  - m_Path: Hydraulic_System/Hydrolic_Reservoir/Hydraulic_Control_Valve_001/Bolt_Hydraulic_Grp_2/Bolt_&_Screw_014_040
    m_Weight: 0
  - m_Path: Hydraulic_System/Hydrolic_Reservoir/Hydraulic_Control_Valve_001/Bolt_Hydraulic_Grp_2/Bolt_&_Screw_014_041
    m_Weight: 0
  - m_Path: Hydraulic_System/Hydrolic_Reservoir/Hydraulic_Control_Valve_001/Bolt_Hydraulic_Grp_2/Bolt_&_Screw_014_042
    m_Weight: 0
  - m_Path: Hydraulic_System/Hydrolic_Reservoir/Hydraulic_Control_Valve_001/Bolt_Hydraulic_Grp_2/Bolt_&_Screw_014_043
    m_Weight: 0
  - m_Path: Hydraulic_System/Hydrolic_Reservoir/Hydraulic_Control_Valve_001/Bolt_Hydraulic_Grp_2/Bolt_&_Screw_014_044
    m_Weight: 0
  - m_Path: Hydraulic_System/Hydrolic_Reservoir/Hydraulic_Control_Valve_001/Bolt_Hydraulic_Grp_2/Bolt_&_Screw_014_045
    m_Weight: 0
  - m_Path: Hydraulic_System/Hydrolic_Reservoir/Hydraulic_Control_Valve_001/Bolt_Hydraulic_Grp_2/Bolt_&_Screw_014_046
    m_Weight: 0
  - m_Path: Hydraulic_System/Hydrolic_Reservoir/Hydraulic_Control_Valve_001/Bolt_Hydraulic_Grp_2/Bolt_&_Screw_014_047
    m_Weight: 0
  - m_Path: Hydraulic_System/Hydrolic_Reservoir/Hydraulic_Control_Valve_001/Hydraulic_Control_Valve_005
    m_Weight: 0
  - m_Path: Hydraulic_System/Hydrolic_Reservoir/Hydraulic_Control_Valve_007
    m_Weight: 0
  - m_Path: Hydraulic_System/Hydrolic_Reservoir/Hydraulic_Control_Valve_007/Bolt_040
    m_Weight: 0
  - m_Path: Hydraulic_System/Hydrolic_Reservoir/Hydraulic_Control_Valve_007/Bolt_043
    m_Weight: 0
  - m_Path: Hydraulic_System/Hydrolic_Reservoir/Hydraulic_Control_Valve_007/Bolt_Hydraulic_Grp
    m_Weight: 0
  - m_Path: Hydraulic_System/Hydrolic_Reservoir/Hydraulic_Control_Valve_007/Bolt_Hydraulic_Grp/Bolt_&_Screw_014_015
    m_Weight: 0
  - m_Path: Hydraulic_System/Hydrolic_Reservoir/Hydraulic_Control_Valve_007/Bolt_Hydraulic_Grp/Bolt_&_Screw_014_016
    m_Weight: 0
  - m_Path: Hydraulic_System/Hydrolic_Reservoir/Hydraulic_Control_Valve_007/Bolt_Hydraulic_Grp/Bolt_&_Screw_014_017
    m_Weight: 0
  - m_Path: Hydraulic_System/Hydrolic_Reservoir/Hydraulic_Control_Valve_007/Bolt_Hydraulic_Grp/Bolt_&_Screw_014_020
    m_Weight: 0
  - m_Path: Hydraulic_System/Hydrolic_Reservoir/Hydraulic_Control_Valve_007/Bolt_Hydraulic_Grp/Bolt_&_Screw_014_022
    m_Weight: 0
  - m_Path: Hydraulic_System/Hydrolic_Reservoir/Hydraulic_Control_Valve_007/Bolt_Hydraulic_Grp/Bolt_&_Screw_014_023
    m_Weight: 0
  - m_Path: Hydraulic_System/Hydrolic_Reservoir/Hydraulic_Control_Valve_007/Bolt_Hydraulic_Grp/Bolt_&_Screw_014_024
    m_Weight: 0
  - m_Path: Hydraulic_System/Hydrolic_Reservoir/Hydraulic_Control_Valve_007/Bolt_Hydraulic_Grp/Bolt_&_Screw_014_025
    m_Weight: 0
  - m_Path: Hydraulic_System/Hydrolic_Reservoir/Hydraulic_Control_Valve_007/Bolt_Hydraulic_Grp/Bolt_&_Screw_014_026
    m_Weight: 0
  - m_Path: Hydraulic_System/Hydrolic_Reservoir/Hydraulic_Control_Valve_007/Bolt_Hydraulic_Grp/Bolt_&_Screw_014_027
    m_Weight: 0
  - m_Path: Hydraulic_System/Hydrolic_Reservoir/Hydraulic_Control_Valve_007/Bolt_Hydraulic_Grp/Bolt_&_Screw_014_028
    m_Weight: 0
  - m_Path: Hydraulic_System/Hydrolic_Reservoir/Hydraulic_Control_Valve_007/Bolt_Hydraulic_Grp/Bolt_&_Screw_014_029
    m_Weight: 0
  - m_Path: Hydraulic_System/Hydrolic_Reservoir/Hydraulic_Control_Valve_007/Bolt_Hydraulic_Grp/Bolt_&_Screw_014_048
    m_Weight: 0
  - m_Path: Hydraulic_System/Hydrolic_Reservoir/Hydraulic_Control_Valve_007/Bolt_Hydraulic_Grp/Bolt_&_Screw_014_049
    m_Weight: 0
  - m_Path: Hydraulic_System/Hydrolic_Reservoir/Hydraulic_Control_Valve_007/Bolt_Hydraulic_Grp/Bolt_&_Screw_014_050
    m_Weight: 0
  - m_Path: Hydraulic_System/Hydrolic_Reservoir/Hydraulic_Control_Valve_007/Bolt_Hydraulic_Grp/Bolt_&_Screw_014_051
    m_Weight: 0
  - m_Path: Hydraulic_System/Hydrolic_Reservoir/Hydraulic_Control_Valve_007/Bolt_Hydraulic_Grp/Bolt_&_Screw_014_052
    m_Weight: 0
  - m_Path: Hydraulic_System/Hydrolic_Reservoir/Hydraulic_Control_Valve_007/Bolt_Hydraulic_Grp/Bolt_&_Screw_014_053
    m_Weight: 0
  - m_Path: Hydraulic_System/Hydrolic_Reservoir/Hydraulic_Control_Valve_007/Bolt_Hydraulic_Grp/Bolt_&_Screw_014_054
    m_Weight: 0
  - m_Path: Hydraulic_System/Hydrolic_Reservoir/Hydraulic_Control_Valve_007/Bolt_Hydraulic_Grp/Bolt_&_Screw_014_055
    m_Weight: 0
  - m_Path: Hydraulic_System/Hydrolic_Reservoir/Hydraulic_Control_Valve_007/Bolt_Hydraulic_Grp/Bolt_&_Screw_014_056
    m_Weight: 0
  - m_Path: Hydraulic_System/Hydrolic_Reservoir/Hydraulic_Control_Valve_007/Bolt_Hydraulic_Grp/Bolt_&_Screw_014_057
    m_Weight: 0
  - m_Path: Hydraulic_System/Hydrolic_Reservoir/Hydraulic_Control_Valve_007/Bolt_Hydraulic_Grp/Bolt_&_Screw_014_058
    m_Weight: 0
  - m_Path: Hydraulic_System/Hydrolic_Reservoir/Hydraulic_Control_Valve_007/Bolt_Hydraulic_Grp/Bolt_&_Screw_014_059
    m_Weight: 0
  - m_Path: Hydraulic_System/Hydrolic_Reservoir/Hydraulic_Control_Valve_007/Bolt_Hydraulic_Grp/Bolt_&_Screw_014_060
    m_Weight: 0
  - m_Path: Hydraulic_System/Hydrolic_Reservoir/Hydraulic_Control_Valve_007/Bolt_Hydraulic_Grp/Bolt_&_Screw_014_061
    m_Weight: 0
  - m_Path: Hydraulic_System/Hydrolic_Reservoir/Hydraulic_Control_Valve_007/Bolt_Hydraulic_Grp/Bolt_&_Screw_014_062
    m_Weight: 0
  - m_Path: Hydraulic_System/Hydrolic_Reservoir/Hydraulic_Control_Valve_007/Bolt_Hydraulic_Grp/Bolt_&_Screw_014_063
    m_Weight: 0
  - m_Path: Hydraulic_System/Hydrolic_Reservoir/Hydraulic_Control_Valve_007/Bolt_Hydraulic_Grp/Bolt_&_Screw_014_064
    m_Weight: 0
  - m_Path: Hydraulic_System/Hydrolic_Reservoir/Hydraulic_Control_Valve_007/Bolt_Hydraulic_Grp/Bolt_&_Screw_014_065
    m_Weight: 0
  - m_Path: Hydraulic_System/Hydrolic_Reservoir/Hydraulic_Control_Valve_007/Bolt_Hydraulic_Grp/Bolt_&_Screw_014_066
    m_Weight: 0
  - m_Path: Hydraulic_System/Hydrolic_Reservoir/Hydraulic_Control_Valve_007/Bolt_Hydraulic_Grp/Bolt_&_Screw_014_067
    m_Weight: 0
  - m_Path: Hydraulic_System/Hydrolic_Reservoir/Hydraulic_Control_Valve_007/Bolt_Hydraulic_Grp/Bolt_&_Screw_014_068
    m_Weight: 0
  - m_Path: Hydraulic_System/Hydrolic_Reservoir/Hydraulic_Control_Valve_007/Bolt_Hydraulic_Grp/Bolt_&_Screw_014_069
    m_Weight: 0
  - m_Path: Hydraulic_System/Hydrolic_Reservoir/Hydraulic_Control_Valve_007/Bolt_Hydraulic_Grp/Bolt_&_Screw_014_070
    m_Weight: 0
  - m_Path: Hydraulic_System/Hydrolic_Reservoir/Hydraulic_Control_Valve_007/Bolt_Hydraulic_Grp/Bolt_&_Screw_014_071
    m_Weight: 0
  - m_Path: Hydraulic_System/Hydrolic_Reservoir/Hydraulic_Control_Valve_007/To_Hydraulic_Cylinder_003
    m_Weight: 0
  - m_Path: Hydraulic_System/Hydrolic_Reservoir/Hydraulic_Control_Valve_007/To_Hydraulic_Cylinder_006
    m_Weight: 0
  - m_Path: Hydraulic_System/Hydrolic_Reservoir/Hydraulic_Control_Valve_008
    m_Weight: 0
  - m_Path: Hydraulic_System/Hydrolic_Reservoir/Hydraulic_Reservoir
    m_Weight: 0
  - m_Path: Hydraulic_System/Hydrolic_Reservoir/Hydraulic_Reservoir/Bolt_025
    m_Weight: 0
  - m_Path: Hydraulic_System/Hydrolic_Reservoir/Hydraulic_Reservoir/Hydraulic_Control_Valve_004
    m_Weight: 0
  - m_Path: Hydraulic_System/Hydrolic_Reservoir/Hydraulic_Reservoir/Pump_Suction_001
    m_Weight: 0
  - m_Path: Hydraulic_System/Hydrolic_Reservoir/Hydraulic_Reservoir/Pump_To_Reservoir_005
    m_Weight: 0
  - m_Path: Hydraulic_System/Hydrolic_Reservoir/Hydraulic_Reservoir/Pump_To_Reservoir_006
    m_Weight: 0
  - m_Path: Hydraulic_System/Hydrolic_Reservoir/Hydraulic_Reservoir/Reservoir_To_Hydraulic_Control_Valve
    m_Weight: 0
  - m_Path: Hydraulic_System/Hydrolic_Reservoir/Hydraulic_Reservoir/Reservoir_To_Hydraulic_Control_Valve_003
    m_Weight: 0
  - m_Path: Hydraulic_System/Hydrolic_Reservoir/Reservoir_To_Hydraulic_Control_Valve_001
    m_Weight: 0
  - m_Path: Hydraulic_System/Hydrolic_Reservoir/Reservoir_To_Hydraulic_Control_Valve_002
    m_Weight: 0
  - m_Path: Hydraulic_System/Optical_Assembly
    m_Weight: 0
  - m_Path: Hydraulic_System/Optical_Assembly/Optical_Assembly_002
    m_Weight: 0
  - m_Path: Hydraulic_System/Optical_Assembly/To_Optical_Assembly_002
    m_Weight: 0
  - m_Path: Indicator
    m_Weight: 0
  - m_Path: Indicator/Indicator_Compact_Prover
    m_Weight: 0
  - m_Path: Indicator/Indicator_Compact_Prover/Jarum_Indicator_004
    m_Weight: 0
  - m_Path: Indicator/Indicator_Compact_Prover_001
    m_Weight: 0
  - m_Path: Indicator/Indicator_Compact_Prover_001/Indicator_Compact_Prover_001_Valve
    m_Weight: 0
  - m_Path: Indicator/Indicator_Compact_Prover_001/Jarum_Indicator
    m_Weight: 0
  - m_Path: Indicator/Indicator_Compact_Prover_002
    m_Weight: 0
  - m_Path: Indicator/Indicator_Compact_Prover_002/Jarum_Indicator_002_001
    m_Weight: 0
  - m_Path: Indicator/Indicator_Compact_Prover_003
    m_Weight: 0
  - m_Path: Indicator/Indicator_Compact_Prover_003/Jarum_Indicator_003
    m_Weight: 0
  - m_Path: Indicator/Indicator_Compact_Prover_004
    m_Weight: 0
  - m_Path: Nitrogen_Charge_Tank_Grp
    m_Weight: 0
  - m_Path: Nitrogen_Charge_Tank_Grp/Nitrogen_Charge_Tank
    m_Weight: 0
  - m_Path: Nitrogen_Charge_Tank_Grp/Nitrogen_Charge_Tank/Nitrogen_Valve
    m_Weight: 0
  - m_Path: Nitrogen_Charge_Tank_Grp/Nitrogen_Charge_Tank/Nitrogen_Valve/Nitrogen_Indicator
    m_Weight: 0
  - m_Path: Nitrogen_Charge_Tank_Grp/Nitrogen_Charge_Tank/Nitrogen_Valve/Nitrogen_Indicator/Nitrogen_Connector
    m_Weight: 0
  - m_Path: Nitrogen_Charge_Tank_Grp/Nitrogen_Charge_Tank/Nitrogen_Valve/Nitrogen_Indicator/Nitrogen_Indicator.001
    m_Weight: 0
  - m_Path: Nitrogen_Charge_Tank_Grp/Nitrogen_Charge_Tank/Nitrogen_Valve/Nitrogen_Indicator/Nitrogen_Indicator.002
    m_Weight: 0
  - m_Path: Nitrogen_Charge_Tank_Grp/Nitrogen_Charge_Tank/Nitrogen_Valve/Nitrogen_Indicator/Nitrogen_Indicator_001
    m_Weight: 0
  - m_Path: Nitrogen_Charge_Tank_Grp/Nitrogen_Charge_Tank/Nitrogen_Valve/Nitrogen_Indicator/Nitrogen_Indicator_002
    m_Weight: 0
  - m_Path: Nitrogen_Charge_Tank_Grp/Nitrogen_Charge_Tank/Nitrogen_Valve/Nitrogen_Indicator/Nitrogen_Indicator_003
    m_Weight: 0
  - m_Path: Piston_Chamber
    m_Weight: 0
  - m_Path: Piston_Chamber/Inlet
    m_Weight: 0
  - m_Path: Piston_Chamber/Inlet/Clamp_002
    m_Weight: 0
  - m_Path: Piston_Chamber/Inlet/Nut066_001
    m_Weight: 0
  - m_Path: Piston_Chamber/Inlet/Nut067_001
    m_Weight: 0
  - m_Path: Piston_Chamber/Inlet/Nut070_001
    m_Weight: 0
  - m_Path: Piston_Chamber/Inlet/Nut070_001.001
    m_Weight: 0
  - m_Path: Piston_Chamber/Inlet/Nut071_001
    m_Weight: 0
  - m_Path: Piston_Chamber/Inlet/Nut071_001.001
    m_Weight: 0
  - m_Path: Piston_Chamber/Inlet/Nut072_001
    m_Weight: 0
  - m_Path: Piston_Chamber/Inlet/Nut072_001.001
    m_Weight: 0
  - m_Path: Piston_Chamber/Inlet/Nut073_001
    m_Weight: 0
  - m_Path: Piston_Chamber/Inlet/Nut073_001.001
    m_Weight: 0
  - m_Path: Piston_Chamber/Inlet/Nut074_001
    m_Weight: 0
  - m_Path: Piston_Chamber/Inlet/Nut074_001.001
    m_Weight: 0
  - m_Path: Piston_Chamber/Inlet/Nut075_001
    m_Weight: 0
  - m_Path: Piston_Chamber/Inlet/Nut075_001.001
    m_Weight: 0
  - m_Path: Piston_Chamber/Inlet/Nut076_001
    m_Weight: 0
  - m_Path: Piston_Chamber/Inlet/Nut076_001.001
    m_Weight: 0
  - m_Path: Piston_Chamber/Inlet/Nut077_001
    m_Weight: 0
  - m_Path: Piston_Chamber/Inlet/Nut077_001.001
    m_Weight: 0
  - m_Path: Piston_Chamber/Inlet/Nut078_001
    m_Weight: 0
  - m_Path: Piston_Chamber/Inlet/Nut078_001.001
    m_Weight: 0
  - m_Path: Piston_Chamber/Inlet/Nut079_001
    m_Weight: 0
  - m_Path: Piston_Chamber/Inlet/Nut079_001.001
    m_Weight: 0
  - m_Path: Piston_Chamber/Inlet/Nut080_001
    m_Weight: 0
  - m_Path: Piston_Chamber/Inlet/Nut080_001.001
    m_Weight: 0
  - m_Path: Piston_Chamber/Inlet/Nut081_001
    m_Weight: 0
  - m_Path: Piston_Chamber/Inlet/Nut081_001.001
    m_Weight: 0
  - m_Path: Piston_Chamber/Inlet/Nut082_001
    m_Weight: 0
  - m_Path: Piston_Chamber/Inlet/Nut082_001.001
    m_Weight: 0
  - m_Path: Piston_Chamber/Inlet/Nut083_001
    m_Weight: 0
  - m_Path: Piston_Chamber/Inlet/Nut083_001.001
    m_Weight: 0
  - m_Path: Piston_Chamber/Inlet/Nut084_001
    m_Weight: 0
  - m_Path: Piston_Chamber/Inlet/Nut084_001.001
    m_Weight: 0
  - m_Path: Piston_Chamber/Inlet/Nut085_001
    m_Weight: 0
  - m_Path: Piston_Chamber/Inlet/Nut085_001.001
    m_Weight: 0
  - m_Path: Piston_Chamber/Inlet/Ring087
    m_Weight: 0
  - m_Path: Piston_Chamber/Inlet/Ring088
    m_Weight: 0
  - m_Path: Piston_Chamber/Inlet/Ring091
    m_Weight: 0
  - m_Path: Piston_Chamber/Inlet/Ring091.001
    m_Weight: 0
  - m_Path: Piston_Chamber/Inlet/Ring092
    m_Weight: 0
  - m_Path: Piston_Chamber/Inlet/Ring092.001
    m_Weight: 0
  - m_Path: Piston_Chamber/Inlet/Ring093
    m_Weight: 0
  - m_Path: Piston_Chamber/Inlet/Ring093.001
    m_Weight: 0
  - m_Path: Piston_Chamber/Inlet/Ring094
    m_Weight: 0
  - m_Path: Piston_Chamber/Inlet/Ring094.001
    m_Weight: 0
  - m_Path: Piston_Chamber/Inlet/Ring095
    m_Weight: 0
  - m_Path: Piston_Chamber/Inlet/Ring095.001
    m_Weight: 0
  - m_Path: Piston_Chamber/Inlet/Ring096
    m_Weight: 0
  - m_Path: Piston_Chamber/Inlet/Ring096.001
    m_Weight: 0
  - m_Path: Piston_Chamber/Inlet/Ring097
    m_Weight: 0
  - m_Path: Piston_Chamber/Inlet/Ring097.001
    m_Weight: 0
  - m_Path: Piston_Chamber/Inlet/Ring098
    m_Weight: 0
  - m_Path: Piston_Chamber/Inlet/Ring098.001
    m_Weight: 0
  - m_Path: Piston_Chamber/Inlet/Ring099
    m_Weight: 0
  - m_Path: Piston_Chamber/Inlet/Ring099.001
    m_Weight: 0
  - m_Path: Piston_Chamber/Inlet/Ring100
    m_Weight: 0
  - m_Path: Piston_Chamber/Inlet/Ring100.001
    m_Weight: 0
  - m_Path: Piston_Chamber/Inlet/Ring101
    m_Weight: 0
  - m_Path: Piston_Chamber/Inlet/Ring101.001
    m_Weight: 0
  - m_Path: Piston_Chamber/Inlet/Ring102
    m_Weight: 0
  - m_Path: Piston_Chamber/Inlet/Ring102.001
    m_Weight: 0
  - m_Path: Piston_Chamber/Inlet/Ring103
    m_Weight: 0
  - m_Path: Piston_Chamber/Inlet/Ring103.001
    m_Weight: 0
  - m_Path: Piston_Chamber/Inlet/Ring104
    m_Weight: 0
  - m_Path: Piston_Chamber/Inlet/Ring104.001
    m_Weight: 0
  - m_Path: Piston_Chamber/Inlet/Ring105
    m_Weight: 0
  - m_Path: Piston_Chamber/Inlet/Ring105.001
    m_Weight: 0
  - m_Path: Piston_Chamber/Inlet/Ring106
    m_Weight: 0
  - m_Path: Piston_Chamber/Inlet/Ring106.001
    m_Weight: 0
  - m_Path: Piston_Chamber/Inlet/Ring107
    m_Weight: 0
  - m_Path: Piston_Chamber/Inlet/Ring107.001
    m_Weight: 0
  - m_Path: Piston_Chamber/Inlet/Ring108
    m_Weight: 0
  - m_Path: Piston_Chamber/Inlet/Ring108.001
    m_Weight: 0
  - m_Path: Piston_Chamber/Inlet/Ring109
    m_Weight: 0
  - m_Path: Piston_Chamber/Inlet/Ring109.001
    m_Weight: 0
  - m_Path: Piston_Chamber/Inlet/Ring110
    m_Weight: 0
  - m_Path: Piston_Chamber/Inlet/Ring110.001
    m_Weight: 0
  - m_Path: Piston_Chamber/Inlet/Ring111
    m_Weight: 0
  - m_Path: Piston_Chamber/Inlet/Ring111.001
    m_Weight: 0
  - m_Path: Piston_Chamber/Inlet/Ring112
    m_Weight: 0
  - m_Path: Piston_Chamber/Inlet/Ring112.001
    m_Weight: 0
  - m_Path: Piston_Chamber/Inlet/Ring113
    m_Weight: 0
  - m_Path: Piston_Chamber/Inlet/Ring113.001
    m_Weight: 0
  - m_Path: Piston_Chamber/Inlet/Ring114
    m_Weight: 0
  - m_Path: Piston_Chamber/Inlet/Ring114.001
    m_Weight: 0
  - m_Path: Piston_Chamber/Inlet_001
    m_Weight: 0
  - m_Path: Piston_Chamber/Inlet_001/Clamp
    m_Weight: 0
  - m_Path: Piston_Chamber/Inlet_001/Clamp_001
    m_Weight: 0
  - m_Path: Piston_Chamber/Inlet_001/Nut048_001
    m_Weight: 0
  - m_Path: Piston_Chamber/Inlet_001/Nut049_001
    m_Weight: 0
  - m_Path: Piston_Chamber/Inlet_001/Nut050_001
    m_Weight: 0
  - m_Path: Piston_Chamber/Inlet_001/Nut051_001
    m_Weight: 0
  - m_Path: Piston_Chamber/Inlet_001/Nut102_001
    m_Weight: 0
  - m_Path: Piston_Chamber/Inlet_001/Nut103_001
    m_Weight: 0
  - m_Path: Piston_Chamber/Inlet_001/Nut104_001
    m_Weight: 0
  - m_Path: Piston_Chamber/Inlet_001/Ring064
    m_Weight: 0
  - m_Path: Piston_Chamber/Inlet_001/Ring065
    m_Weight: 0
  - m_Path: Piston_Chamber/Inlet_001/Ring066
    m_Weight: 0
  - m_Path: Piston_Chamber/Inlet_001/Ring067
    m_Weight: 0
  - m_Path: Piston_Chamber/Nut001_001
    m_Weight: 0
  - m_Path: Piston_Chamber/Nut002_001
    m_Weight: 0
  - m_Path: Piston_Chamber/Nut003_001
    m_Weight: 0
  - m_Path: Piston_Chamber/Nut004_001
    m_Weight: 0
  - m_Path: Piston_Chamber/Nut005_001
    m_Weight: 0
  - m_Path: Piston_Chamber/Nut006_001
    m_Weight: 0
  - m_Path: Piston_Chamber/Nut007_001
    m_Weight: 0
  - m_Path: Piston_Chamber/Nut008_001
    m_Weight: 0
  - m_Path: Piston_Chamber/Nut009_001
    m_Weight: 0
  - m_Path: Piston_Chamber/Nut010_001
    m_Weight: 0
  - m_Path: Piston_Chamber/Nut011_001
    m_Weight: 0
  - m_Path: Piston_Chamber/Nut012_001
    m_Weight: 0
  - m_Path: Piston_Chamber/Nut013_001
    m_Weight: 0
  - m_Path: Piston_Chamber/Nut014_001
    m_Weight: 0
  - m_Path: Piston_Chamber/Nut015_001
    m_Weight: 0
  - m_Path: Piston_Chamber/Nut_001
    m_Weight: 0
  - m_Path: Piston_Chamber/Outlet
    m_Weight: 0
  - m_Path: Piston_Chamber/Outlet/Bolt_010
    m_Weight: 0
  - m_Path: Piston_Chamber/Outlet/Bolt_012
    m_Weight: 0
  - m_Path: Piston_Chamber/Outlet/Drain_Valve_010
    m_Weight: 0
  - m_Path: Piston_Chamber/Outlet/Drain_Valve_011
    m_Weight: 0
  - m_Path: Piston_Chamber/Outlet/Drain_Valve_012
    m_Weight: 0
  - m_Path: Piston_Chamber/Outlet/Drain_Valve_013
    m_Weight: 0
  - m_Path: Piston_Chamber/Outlet/Drain_Valve_014
    m_Weight: 0
  - m_Path: Piston_Chamber/Outlet/Ring076
    m_Weight: 0
  - m_Path: Piston_Chamber/Outlet/Ring078
    m_Weight: 0
  - m_Path: Piston_Chamber/Outlet/Vent_Valve_010
    m_Weight: 0
  - m_Path: Piston_Chamber/Outlet/Vent_Valve_011
    m_Weight: 0
  - m_Path: Piston_Chamber/Outlet/Vent_Valve_012
    m_Weight: 0
  - m_Path: Piston_Chamber/Outlet/Vent_Valve_013
    m_Weight: 0
  - m_Path: Piston_Chamber/Outlet/Vent_Valve_014
    m_Weight: 0
  - m_Path: Piston_Chamber/Outlet_001
    m_Weight: 0
  - m_Path: Piston_Chamber/Outlet_001/Clamp_003
    m_Weight: 0
  - m_Path: Piston_Chamber/Outlet_001/Nut032_001
    m_Weight: 0
  - m_Path: Piston_Chamber/Outlet_001/Nut032_001.001
    m_Weight: 0
  - m_Path: Piston_Chamber/Outlet_001/Nut033_001
    m_Weight: 0
  - m_Path: Piston_Chamber/Outlet_001/Nut033_001.001
    m_Weight: 0
  - m_Path: Piston_Chamber/Outlet_001/Nut034_001
    m_Weight: 0
  - m_Path: Piston_Chamber/Outlet_001/Nut034_001.001
    m_Weight: 0
  - m_Path: Piston_Chamber/Outlet_001/Nut035_001
    m_Weight: 0
  - m_Path: Piston_Chamber/Outlet_001/Nut035_001.001
    m_Weight: 0
  - m_Path: Piston_Chamber/Outlet_001/Nut036_001
    m_Weight: 0
  - m_Path: Piston_Chamber/Outlet_001/Nut036_001.001
    m_Weight: 0
  - m_Path: Piston_Chamber/Outlet_001/Nut037_001
    m_Weight: 0
  - m_Path: Piston_Chamber/Outlet_001/Nut037_001.001
    m_Weight: 0
  - m_Path: Piston_Chamber/Outlet_001/Nut038_001
    m_Weight: 0
  - m_Path: Piston_Chamber/Outlet_001/Nut038_001.001
    m_Weight: 0
  - m_Path: Piston_Chamber/Outlet_001/Nut039_001
    m_Weight: 0
  - m_Path: Piston_Chamber/Outlet_001/Nut039_001.001
    m_Weight: 0
  - m_Path: Piston_Chamber/Outlet_001/Nut040_001
    m_Weight: 0
  - m_Path: Piston_Chamber/Outlet_001/Nut040_001.001
    m_Weight: 0
  - m_Path: Piston_Chamber/Outlet_001/Nut041_001
    m_Weight: 0
  - m_Path: Piston_Chamber/Outlet_001/Nut041_001.001
    m_Weight: 0
  - m_Path: Piston_Chamber/Outlet_001/Nut042_001
    m_Weight: 0
  - m_Path: Piston_Chamber/Outlet_001/Nut042_001.001
    m_Weight: 0
  - m_Path: Piston_Chamber/Outlet_001/Nut043_001
    m_Weight: 0
  - m_Path: Piston_Chamber/Outlet_001/Nut043_001.001
    m_Weight: 0
  - m_Path: Piston_Chamber/Outlet_001/Nut044_001
    m_Weight: 0
  - m_Path: Piston_Chamber/Outlet_001/Nut044_001.001
    m_Weight: 0
  - m_Path: Piston_Chamber/Outlet_001/Nut045_001
    m_Weight: 0
  - m_Path: Piston_Chamber/Outlet_001/Nut045_001.001
    m_Weight: 0
  - m_Path: Piston_Chamber/Outlet_001/Nut046_001
    m_Weight: 0
  - m_Path: Piston_Chamber/Outlet_001/Nut046_001.001
    m_Weight: 0
  - m_Path: Piston_Chamber/Outlet_001/Nut047_001
    m_Weight: 0
  - m_Path: Piston_Chamber/Outlet_001/Nut047_001.001
    m_Weight: 0
  - m_Path: Piston_Chamber/Outlet_001/Nut068_001
    m_Weight: 0
  - m_Path: Piston_Chamber/Outlet_001/Nut069_001
    m_Weight: 0
  - m_Path: Piston_Chamber/Outlet_001/Ring040
    m_Weight: 0
  - m_Path: Piston_Chamber/Outlet_001/Ring040.001
    m_Weight: 0
  - m_Path: Piston_Chamber/Outlet_001/Ring041
    m_Weight: 0
  - m_Path: Piston_Chamber/Outlet_001/Ring041.001
    m_Weight: 0
  - m_Path: Piston_Chamber/Outlet_001/Ring042
    m_Weight: 0
  - m_Path: Piston_Chamber/Outlet_001/Ring042.001
    m_Weight: 0
  - m_Path: Piston_Chamber/Outlet_001/Ring043
    m_Weight: 0
  - m_Path: Piston_Chamber/Outlet_001/Ring043.001
    m_Weight: 0
  - m_Path: Piston_Chamber/Outlet_001/Ring044
    m_Weight: 0
  - m_Path: Piston_Chamber/Outlet_001/Ring044.001
    m_Weight: 0
  - m_Path: Piston_Chamber/Outlet_001/Ring045
    m_Weight: 0
  - m_Path: Piston_Chamber/Outlet_001/Ring045.001
    m_Weight: 0
  - m_Path: Piston_Chamber/Outlet_001/Ring046
    m_Weight: 0
  - m_Path: Piston_Chamber/Outlet_001/Ring046.001
    m_Weight: 0
  - m_Path: Piston_Chamber/Outlet_001/Ring047
    m_Weight: 0
  - m_Path: Piston_Chamber/Outlet_001/Ring047.001
    m_Weight: 0
  - m_Path: Piston_Chamber/Outlet_001/Ring048
    m_Weight: 0
  - m_Path: Piston_Chamber/Outlet_001/Ring048.001
    m_Weight: 0
  - m_Path: Piston_Chamber/Outlet_001/Ring049
    m_Weight: 0
  - m_Path: Piston_Chamber/Outlet_001/Ring049.001
    m_Weight: 0
  - m_Path: Piston_Chamber/Outlet_001/Ring050
    m_Weight: 0
  - m_Path: Piston_Chamber/Outlet_001/Ring050.001
    m_Weight: 0
  - m_Path: Piston_Chamber/Outlet_001/Ring051
    m_Weight: 0
  - m_Path: Piston_Chamber/Outlet_001/Ring051.001
    m_Weight: 0
  - m_Path: Piston_Chamber/Outlet_001/Ring052
    m_Weight: 0
  - m_Path: Piston_Chamber/Outlet_001/Ring052.001
    m_Weight: 0
  - m_Path: Piston_Chamber/Outlet_001/Ring053
    m_Weight: 0
  - m_Path: Piston_Chamber/Outlet_001/Ring053.001
    m_Weight: 0
  - m_Path: Piston_Chamber/Outlet_001/Ring054
    m_Weight: 0
  - m_Path: Piston_Chamber/Outlet_001/Ring054.001
    m_Weight: 0
  - m_Path: Piston_Chamber/Outlet_001/Ring055
    m_Weight: 0
  - m_Path: Piston_Chamber/Outlet_001/Ring055.001
    m_Weight: 0
  - m_Path: Piston_Chamber/Outlet_001/Ring056
    m_Weight: 0
  - m_Path: Piston_Chamber/Outlet_001/Ring056.001
    m_Weight: 0
  - m_Path: Piston_Chamber/Outlet_001/Ring057
    m_Weight: 0
  - m_Path: Piston_Chamber/Outlet_001/Ring057.001
    m_Weight: 0
  - m_Path: Piston_Chamber/Outlet_001/Ring058
    m_Weight: 0
  - m_Path: Piston_Chamber/Outlet_001/Ring058.001
    m_Weight: 0
  - m_Path: Piston_Chamber/Outlet_001/Ring059
    m_Weight: 0
  - m_Path: Piston_Chamber/Outlet_001/Ring059.001
    m_Weight: 0
  - m_Path: Piston_Chamber/Outlet_001/Ring060
    m_Weight: 0
  - m_Path: Piston_Chamber/Outlet_001/Ring060.001
    m_Weight: 0
  - m_Path: Piston_Chamber/Outlet_001/Ring061
    m_Weight: 0
  - m_Path: Piston_Chamber/Outlet_001/Ring061.001
    m_Weight: 0
  - m_Path: Piston_Chamber/Outlet_001/Ring062
    m_Weight: 0
  - m_Path: Piston_Chamber/Outlet_001/Ring062.001
    m_Weight: 0
  - m_Path: Piston_Chamber/Outlet_001/Ring063
    m_Weight: 0
  - m_Path: Piston_Chamber/Outlet_001/Ring063.001
    m_Weight: 0
  - m_Path: Piston_Chamber/Outlet_001/Ring089
    m_Weight: 0
  - m_Path: Piston_Chamber/Outlet_001/Ring090
    m_Weight: 0
  - m_Path: Piston_Chamber/Outlet_001.001
    m_Weight: 0
  - m_Path: Piston_Chamber/Outlet_001.002
    m_Weight: 0
  - m_Path: Piston_Chamber/Piston _Assembly
    m_Weight: 0
  - m_Path: Piston_Chamber/Piston _Assembly/Bolt_005
    m_Weight: 0
  - m_Path: Piston_Chamber/Piston _Assembly/Hydraulic_System_Pump_&_Motor_031
    m_Weight: 0
  - m_Path: Piston_Chamber/Piston _Assembly/Hydraulic_System_Pump_&_Motor_031_001
    m_Weight: 0
  - m_Path: Piston_Chamber/Piston _Assembly/optical_holder
    m_Weight: 0
  - m_Path: Piston_Chamber/Piston _Assembly/Ring071
    m_Weight: 0
  - m_Path: Piston_Chamber/Piston _Assembly/Ring072
    m_Weight: 0
  - m_Path: Piston_Chamber/Piston _Assembly/Ring073
    m_Weight: 0
  - m_Path: Piston_Chamber/Piston_Assembly
    m_Weight: 0
  - m_Path: Piston_Chamber/Piston_Assembly_001
    m_Weight: 0
  - m_Path: Piston_Chamber/Piston_Assembly_002
    m_Weight: 0
  - m_Path: Piston_Chamber/Piston_Assembly_003
    m_Weight: 0
  - m_Path: Piston_Chamber/Piston_Assembly_004
    m_Weight: 0
  - m_Path: Piston_Chamber/Piston_Assembly_005
    m_Weight: 0
  - m_Path: Piston_Chamber/Piston_Assembly_006
    m_Weight: 0
  - m_Path: Piston_Chamber/Piston_Assembly_007
    m_Weight: 0
  - m_Path: Piston_Chamber/Piston_Assembly_008
    m_Weight: 0
  - m_Path: Piston_Chamber/Piston_Assembly_009
    m_Weight: 0
  - m_Path: Piston_Chamber/Piston_Assembly_009/Drain_Valve_015
    m_Weight: 0
  - m_Path: Piston_Chamber/Piston_Assembly_009/Drain_Valve_016
    m_Weight: 0
  - m_Path: Piston_Chamber/Piston_Assembly_009/Drain_Valve_017
    m_Weight: 0
  - m_Path: Piston_Chamber/Piston_Assembly_009/Drain_Valve_018
    m_Weight: 0
  - m_Path: Piston_Chamber/Piston_Assembly_009/Drain_Valve_019
    m_Weight: 0
  - m_Path: Piston_Chamber/Piston_Assembly_009/Nut016_001
    m_Weight: 0
  - m_Path: Piston_Chamber/Piston_Assembly_009/Nut017_001
    m_Weight: 0
  - m_Path: Piston_Chamber/Piston_Assembly_009/Nut018_001
    m_Weight: 0
  - m_Path: Piston_Chamber/Piston_Assembly_009/Nut019_001
    m_Weight: 0
  - m_Path: Piston_Chamber/Piston_Assembly_009/Nut020_001
    m_Weight: 0
  - m_Path: Piston_Chamber/Piston_Assembly_009/Nut021_001
    m_Weight: 0
  - m_Path: Piston_Chamber/Piston_Assembly_009/Nut022_001
    m_Weight: 0
  - m_Path: Piston_Chamber/Piston_Assembly_009/Nut023_001
    m_Weight: 0
  - m_Path: Piston_Chamber/Piston_Assembly_009/Nut024_001
    m_Weight: 0
  - m_Path: Piston_Chamber/Piston_Assembly_009/Nut025_001
    m_Weight: 0
  - m_Path: Piston_Chamber/Piston_Assembly_009/Nut026_001
    m_Weight: 0
  - m_Path: Piston_Chamber/Piston_Assembly_009/Nut027_001
    m_Weight: 0
  - m_Path: Piston_Chamber/Piston_Assembly_009/Nut028_001
    m_Weight: 0
  - m_Path: Piston_Chamber/Piston_Assembly_009/Nut029_001
    m_Weight: 0
  - m_Path: Piston_Chamber/Piston_Assembly_009/Nut030_001
    m_Weight: 0
  - m_Path: Piston_Chamber/Piston_Assembly_009/Nut031_001
    m_Weight: 0
  - m_Path: Piston_Chamber/Piston_Assembly_009/Ring016
    m_Weight: 0
  - m_Path: Piston_Chamber/Piston_Assembly_009/Ring017
    m_Weight: 0
  - m_Path: Piston_Chamber/Piston_Assembly_009/Ring018
    m_Weight: 0
  - m_Path: Piston_Chamber/Piston_Assembly_009/Ring019
    m_Weight: 0
  - m_Path: Piston_Chamber/Piston_Assembly_009/Ring020
    m_Weight: 0
  - m_Path: Piston_Chamber/Piston_Assembly_009/Ring021
    m_Weight: 0
  - m_Path: Piston_Chamber/Piston_Assembly_009/Ring022
    m_Weight: 0
  - m_Path: Piston_Chamber/Piston_Assembly_009/Ring023
    m_Weight: 0
  - m_Path: Piston_Chamber/Piston_Assembly_009/Ring024
    m_Weight: 0
  - m_Path: Piston_Chamber/Piston_Assembly_009/Ring025
    m_Weight: 0
  - m_Path: Piston_Chamber/Piston_Assembly_009/Ring026
    m_Weight: 0
  - m_Path: Piston_Chamber/Piston_Assembly_009/Ring027
    m_Weight: 0
  - m_Path: Piston_Chamber/Piston_Assembly_009/Ring028
    m_Weight: 0
  - m_Path: Piston_Chamber/Piston_Assembly_009/Ring029
    m_Weight: 0
  - m_Path: Piston_Chamber/Piston_Assembly_009/Ring030
    m_Weight: 0
  - m_Path: Piston_Chamber/Piston_Assembly_009/Ring031
    m_Weight: 0
  - m_Path: Piston_Chamber/Piston_Assembly_009/Ring032
    m_Weight: 0
  - m_Path: Piston_Chamber/Piston_Assembly_009/Ring033
    m_Weight: 0
  - m_Path: Piston_Chamber/Piston_Assembly_009/Ring034
    m_Weight: 0
  - m_Path: Piston_Chamber/Piston_Assembly_009/Ring035
    m_Weight: 0
  - m_Path: Piston_Chamber/Piston_Assembly_009/Ring036
    m_Weight: 0
  - m_Path: Piston_Chamber/Piston_Assembly_009/Ring037
    m_Weight: 0
  - m_Path: Piston_Chamber/Piston_Assembly_009/Ring038
    m_Weight: 0
  - m_Path: Piston_Chamber/Piston_Assembly_009/Ring039
    m_Weight: 0
  - m_Path: Piston_Chamber/Piston_Assembly_009/Vent_Valve_015
    m_Weight: 0
  - m_Path: Piston_Chamber/Piston_Assembly_009/Vent_Valve_016
    m_Weight: 0
  - m_Path: Piston_Chamber/Piston_Assembly_009/Vent_Valve_017
    m_Weight: 0
  - m_Path: Piston_Chamber/Piston_Assembly_009/Vent_Valve_018
    m_Weight: 0
  - m_Path: Piston_Chamber/Piston_Assembly_009/Vent_Valve_019
    m_Weight: 0
  - m_Path: Piston_Chamber/Ring001
    m_Weight: 0
  - m_Path: Piston_Chamber/Ring002
    m_Weight: 0
  - m_Path: Piston_Chamber/Ring003
    m_Weight: 0
  - m_Path: Piston_Chamber/Ring004
    m_Weight: 0
  - m_Path: Piston_Chamber/Ring005
    m_Weight: 0
  - m_Path: Piston_Chamber/Ring006
    m_Weight: 0
  - m_Path: Piston_Chamber/Ring007
    m_Weight: 0
  - m_Path: Piston_Chamber/Ring008
    m_Weight: 0
  - m_Path: Piston_Chamber/Ring009
    m_Weight: 0
  - m_Path: Piston_Chamber/Ring010
    m_Weight: 0
  - m_Path: Piston_Chamber/Ring011
    m_Weight: 0
  - m_Path: Piston_Chamber/Ring012
    m_Weight: 0
  - m_Path: Piston_Chamber/Ring013
    m_Weight: 0
  - m_Path: Piston_Chamber/Ring014
    m_Weight: 0
  - m_Path: Piston_Chamber/Ring015
    m_Weight: 0
  - m_Path: Piston_Chamber/Ring115
    m_Weight: 0
  - m_Path: Pneumatic_Spring_Plenum_Bridge
    m_Weight: 0
  - m_Path: Pneumatic_Spring_Plenum_Grp
    m_Weight: 0
  - m_Path: Pneumatic_Spring_Plenum_Grp/Pneumatic_Spring_Plenum
    m_Weight: 0
  - m_Path: Pneumatic_Spring_Plenum_Grp/Pneumatic_Spring_Plenum/Bolt
    m_Weight: 0
  - m_Path: Pneumatic_Spring_Plenum_Grp/Pneumatic_Spring_Plenum/Bolt_013
    m_Weight: 0
  - m_Path: Pneumatic_Spring_Plenum_Grp/Pneumatic_Spring_Plenum/Bolt_014
    m_Weight: 0
  - m_Path: Pneumatic_Spring_Plenum_Grp/Pneumatic_Spring_Plenum/Bolt_015
    m_Weight: 0
  - m_Path: Pneumatic_Spring_Plenum_Grp/Pneumatic_Spring_Plenum/Bolt_016
    m_Weight: 0
  - m_Path: Pneumatic_Spring_Plenum_Grp/Pneumatic_Spring_Plenum/Clamp.001
    m_Weight: 0
  - m_Path: Pneumatic_Spring_Plenum_Grp/Pneumatic_Spring_Plenum/Clamp.003
    m_Weight: 0
  - m_Path: Pneumatic_Spring_Plenum_Grp/Pneumatic_Spring_Plenum/Indicator_Compact_Prover_001_001
    m_Weight: 0
  - m_Path: Pneumatic_Spring_Plenum_Grp/Pneumatic_Spring_Plenum/Indicator_Compact_Prover_001_001/Jarum_Indicator_004_001
    m_Weight: 0
  - m_Path: Pneumatic_Spring_Plenum_Grp/Pneumatic_Spring_Plenum/Nut062_001
    m_Weight: 0
  - m_Path: Pneumatic_Spring_Plenum_Grp/Pneumatic_Spring_Plenum/Nut063_001
    m_Weight: 0
  - m_Path: Pneumatic_Spring_Plenum_Grp/Pneumatic_Spring_Plenum/Nut064_001
    m_Weight: 0
  - m_Path: Pneumatic_Spring_Plenum_Grp/Pneumatic_Spring_Plenum/Nut065_001
    m_Weight: 0
  - m_Path: Pneumatic_Spring_Plenum_Grp/Pneumatic_Spring_Plenum/Ring079_001
    m_Weight: 0
  - m_Path: Pneumatic_Spring_Plenum_Grp/Pneumatic_Spring_Plenum/Ring080_001
    m_Weight: 0
  - m_Path: Pneumatic_Spring_Plenum_Grp/Pneumatic_Spring_Plenum/Ring081_001
    m_Weight: 0
  - m_Path: Pneumatic_Spring_Plenum_Grp/Pneumatic_Spring_Plenum/Ring082_001
    m_Weight: 0
  - m_Path: Pneumatic_Spring_Plenum_Grp/Pneumatic_Spring_Plenum/Ring083_001
    m_Weight: 0
  - m_Path: Pneumatic_Spring_Plenum_Grp/Pneumatic_Spring_Plenum/Ring084_001
    m_Weight: 0
  - m_Path: Pneumatic_Spring_Plenum_Grp/Pneumatic_Spring_Plenum/Ring085_001
    m_Weight: 0
  - m_Path: Pneumatic_Spring_Plenum_Grp/Pneumatic_Spring_Plenum/Ring086_001
    m_Weight: 0
  - m_Path: Pump_Discharge
    m_Weight: 0
  - m_Path: Pump_Suction
    m_Weight: 0
  - m_Path: Pump_To_Reservoir
    m_Weight: 0
  - m_Path: Reservoir_To_Hydraulic_Control_Valve_005
    m_Weight: 0
  - m_Path: Spesial_Tools
    m_Weight: 0
  - m_Path: Spesial_Tools/Cylinder_Indicator
    m_Weight: 0
  - m_Path: Spesial_Tools/Helper_Anim_Sp_1
    m_Weight: 1
  - m_Path: Spesial_Tools/Helper_Anim_Sp_1/Indicator_Stand_003
    m_Weight: 1
  - m_Path: Spesial_Tools/Helper_Anim_Sp_1/Indicator_Stand_003/Dial_Indicator
    m_Weight: 1
  - m_Path: Spesial_Tools/Helper_Anim_Sp_1/Indicator_Stand_003/Dial_Indicator/Jarum_Indicator_002
    m_Weight: 1
  - m_Path: Spesial_Tools/Helper_Anim_Sp_1/Indicator_Stand_003/Indicator_Stand_002
    m_Weight: 1
  - m_Path: Spesial_Tools/Helper_Anim_Sp_1/Indicator_Stand_003/Indicator_Stand_002/Indicator_Stand_001
    m_Weight: 1
  - m_Path: Spesial_Tools/Helper_Anim_Sp_1/Screw_Collar
    m_Weight: 1
  - m_Path: Spesial_Tools/Helper_Anim_Sp_1/Screw_Collar/Pin
    m_Weight: 1
  - m_Path: Spesial_Tools/Helper_Anim_Sp_1/Screw_Collar/Screw_Collar.001
    m_Weight: 1
  - m_Path: Spesial_Tools/Support_Stud
    m_Weight: 1
  - m_Path: Spesial_Tools/Support_Stud/Helper_Anim_Sp_2
    m_Weight: 1
  - m_Path: Spesial_Tools/Support_Stud/Helper_Anim_Sp_2/Indicator_Stand
    m_Weight: 1
  - m_Path: To_Hydraulic_Cylinder
    m_Weight: 0
  - m_Path: To_Hydraulic_Cylinder/To_Hydraulic_Cylinder_005
    m_Weight: 0
  - m_Path: To_Hydraulic_Cylinder/To_Hydraulic_Cylinder_007
    m_Weight: 0
  - m_Path: To_Hydraulic_Cylinder_001
    m_Weight: 0
  - m_Path: To_Hydraulic_Cylinder_001/To_Hydraulic_Cylinder_004
    m_Weight: 0
  - m_Path: To_Hydraulic_Cylinder_001/To_Hydraulic_Cylinder_008_001
    m_Weight: 0
