{
  "project_info": {
    "project_number": "791032978892",
    "project_id": "segaris-api",
    "storage_bucket": "segaris-api.appspot.com"
  },
  "client": [
    {
      "client_info": {
        "mobilesdk_app_id": "1:791032978892:android:5fae7c7c25a186369c5169",
        "android_client_info": {
          "package_name": "com.segaris.vt"
        }
      },
      "oauth_client": [
        {
          "client_id": "791032978892-861tffa6hpv6gjh0nil7dr9nigm2fk6v.apps.googleusercontent.com",
          "client_type": 3
        }
      ],
      "api_key": [
        {
          "current_key": "AIzaSyDctPhI-dmiDXBloCAGl0DdYg3YW_J60e8"
        }
      ],
      "services": {
        "appinvite_service": {
          "other_platform_oauth_client": [
            {
              "client_id": "791032978892-861tffa6hpv6gjh0nil7dr9nigm2fk6v.apps.googleusercontent.com",
              "client_type": 3
            },
            {
              "client_id": "791032978892-aqno9npfpiq36jfcungsigrormasdspl.apps.googleusercontent.com",
              "client_type": 2,
              "ios_info": {
                "bundle_id": "com.segaris.vt"
              }
            }
          ]
        }
      }
    }
  ],
  "configuration_version": "1"
}