{
    "name": "silantro.rotaryWing.editor",
    "rootNamespace": "",
    "references": [
        "GUID:61488fa1dee6ce042b9f6b5831ae5694",
        "GUID:b820ebc15d0422342b38a82e77c85ea9"
    ],
    "includePlatforms": [
        "Editor"
    ],
    "excludePlatforms": [],
    "allowUnsafeCode": false,
    "overrideReferences": false,
    "precompiledReferences": [],
    "autoReferenced": true,
    "defineConstraints": [],
    "versionDefines": [],
    "noEngineReferences": false
}