%YAML 1.1
%TAG !u! tag:unity3d.com,2011:
--- !u!114 &-2656576512687666474
MonoBehaviour:
  m_ObjectHideFlags: 11
  m_CorrespondingSourceObject: {fileID: 0}
  m_PrefabInstance: {fileID: 0}
  m_PrefabAsset: {fileID: 0}
  m_GameObject: {fileID: 0}
  m_Enabled: 1
  m_EditorHideFlags: 0
  m_Script: {fileID: 11500000, guid: d0353a89b1f911e48b9e16bdc9f2e058, type: 3}
  m_Name: 
  m_EditorClassIdentifier: 
  version: 5
--- !u!21 &2100000
Material:
  serializedVersion: 8
  m_ObjectHideFlags: 0
  m_CorrespondingSourceObject: {fileID: 0}
  m_PrefabInstance: {fileID: 0}
  m_PrefabAsset: {fileID: 0}
  m_Name: WaterShad 1
  m_Shader: {fileID: -6465566751694194690, guid: b77f8583729cd9242972100781facaea, type: 3}
  m_ValidKeywords:
  - _RECEIVE_SHADOWS_OFF
  - _SURFACE_TYPE_TRANSPARENT
  m_InvalidKeywords: []
  m_LightmapFlags: 2
  m_EnableInstancingVariants: 0
  m_DoubleSidedGI: 0
  m_CustomRenderQueue: 3000
  stringTagMap:
    RenderType: Transparent
  disabledShaderPasses:
  - DepthOnly
  - SHADOWCASTER
  m_SavedProperties:
    serializedVersion: 3
    m_TexEnvs:
    - unity_Lightmaps:
        m_Texture: {fileID: 0}
        m_Scale: {x: 1, y: 1}
        m_Offset: {x: 0, y: 0}
    - unity_LightmapsInd:
        m_Texture: {fileID: 0}
        m_Scale: {x: 1, y: 1}
        m_Offset: {x: 0, y: 0}
    - unity_ShadowMasks:
        m_Texture: {fileID: 0}
        m_Scale: {x: 1, y: 1}
        m_Offset: {x: 0, y: 0}
    m_Ints: []
    m_Floats:
    - _AlphaClip: 0
    - _Blend: 0
    - _CastShadows: 0
    - _Cull: 2
    - _DisplaceSpeed: 0.3
    - _Displacement: 0.05
    - _DstBlend: 10
    - _Metallic: 0
    - _NormalStrength: 1
    - _QueueControl: 0
    - _QueueOffset: 0
    - _ReceiveShadows: 0
    - _Smoothness: 1
    - _SrcBlend: 5
    - _Surface: 1
    - _TransparancyGlobal: 0.2
    - _TransparancyMask: 6.13
    - _VoronoiAgitation: 2
    - _VoronoiPower: 5
    - _VoronoiScale: 2
    - _WorkflowMode: 1
    - _ZTest: 4
    - _ZWrite: 0
    - _ZWriteControl: 0
    m_Colors:
    - _BaseColor: {r: 0, g: 0.33696792, b: 1.8388815, a: 1}
    - _NormalSpeed: {r: 0, g: 0.2, b: 0, a: 0}
    - _VoronoiColor: {r: 0, g: 0.65882355, b: 2.8235295, a: 1}
    - _VoronoiSpeed: {r: 0, g: -0.5, b: 0, a: 0}
    - _VoronoiTiling: {r: 10, g: 10, b: 0, a: 0}
  m_BuildTextureStacks: []
