{
    "name": "SpriteLights",
    "rootNamespace": "",
    "references": [
        "GUID:714658885713be8459ea9b2cbeeb0b27"
    ],
    "includePlatforms": [],
    "excludePlatforms": [],
    "allowUnsafeCode": false,
    "overrideReferences": false,
    "precompiledReferences": [],
    "autoReferenced": true,
    "defineConstraints": [],
    "versionDefines": [],
    "noEngineReferences": false
}